<?xml version="1.0" encoding="UTF-8" standalone="no"?>
<svg width="144px" height="44px" viewBox="0 0 144 44" version="1.1" xmlns="http://www.w3.org/2000/svg" xmlns:xlink="http://www.w3.org/1999/xlink">
    <!-- Generator: Sketch 39.1 (31720) - http://www.bohemiancoding.com/sketch -->
    <title>DOIT</title>
    <desc>Created with Sketch.</desc>
    <defs></defs>
    <g id="Symbols" stroke="none" stroke-width="1" fill="none" fill-rule="evenodd">
        <g id="Footer" transform="translate(-483.000000, -77.000000)" fill="#FFFFFF">
            <g id="Group-16">
                <g transform="translate(203.000000, 47.000000)">
                    <g id="Group-26" transform="translate(280.000000, 0.000000)">
                        <g id="Group-10">
                            <g id="DOIT" transform="translate(0.000000, 30.000000)">
                                <path d="M70.3145038,26.2521008 C69.8015267,26.3260504 69.3251908,26.3630252 68.8122137,26.4 C68.5923664,26.4 68.4458015,26.2521008 68.4458015,25.9193277 L68.4458015,25.8823529 C68.4458015,25.6235294 68.5557252,25.4756303 68.7755725,25.4386555 L69.2885496,25.4386555 C69.5450382,25.0319328 69.8015267,24.6252101 70.021374,24.2184874 C69.5816794,23.4789916 68.9954198,22.6285714 68.5557252,22.0739496 C68.4824427,21.9630252 68.4458015,21.8521008 68.4458015,21.7781513 C68.4458015,21.6672269 68.4824427,21.5563025 68.5557252,21.4453782 C68.6656489,21.3344538 68.7389313,21.297479 68.848855,21.297479 C68.9221374,21.297479 69.0320611,21.3344538 69.1053435,21.4453782 C69.178626,21.5563025 69.2519084,21.6302521 69.3251908,21.7411765 C69.7282443,21.0756303 70.0580153,20.3731092 70.3145038,19.6705882 C70.3877863,19.5226891 70.4977099,19.4487395 70.6076336,19.4487395 C70.680916,19.4487395 70.7541985,19.4487395 70.8274809,19.4857143 C70.9740458,19.5596639 71.0839695,19.707563 71.0839695,19.8554622 C71.0839695,19.9294118 71.0839695,20.0033613 71.0473282,20.0773109 C70.7541985,20.8168067 70.351145,21.5563025 69.8381679,22.4067227 C70.0580153,22.7394958 70.2778626,23.0722689 70.4977099,23.4420168 C70.9007634,22.6655462 71.3038168,21.8890756 71.5603053,21.2235294 C71.6335878,21.0756303 71.7435115,21.0016807 71.8534351,21.0016807 C71.9267176,21.0016807 72,21.0386555 72.0732824,21.0756303 C72.2198473,21.1495798 72.329771,21.297479 72.329771,21.4453782 C72.329771,21.5193277 72.329771,21.5563025 72.2931298,21.6302521 C71.7068702,22.8134454 70.8641221,24.3294118 70.1679389,25.4016807 C70.7175573,25.3647059 71.2671756,25.3277311 71.7801527,25.2537815 C71.670229,24.9210084 71.5603053,24.5512605 71.4503817,24.2554622 L71.4503817,24.1445378 C71.4503817,23.9966387 71.4870229,23.8487395 71.670229,23.7747899 C71.7068702,23.7378151 71.7801527,23.7378151 71.8167939,23.7378151 C71.9267176,23.7378151 72.0366412,23.8117647 72.1099237,23.9596639 C72.3664122,24.5882353 72.6961832,25.5495798 72.8427481,26.2151261 L72.8427481,26.3630252 C72.8427481,26.5109244 72.7328244,26.6218487 72.5862595,26.6957983 C72.5496183,26.7327731 72.4763359,26.7327731 72.4396947,26.7327731 C72.2931298,26.7327731 72.1832061,26.6588235 72.1465649,26.4739496 C72.1099237,26.3260504 72.0732824,26.2151261 72.0366412,26.0672269 C71.9267176,26.0672269 71.8167939,26.1042017 71.7068702,26.1042017 C71.5236641,26.1411765 71.340458,26.1781513 71.1206107,26.1781513 L71.0839695,31.7983193 C71.0839695,32.0201681 70.9374046,32.1310924 70.680916,32.1310924 C70.4244275,32.1310924 70.2778626,32.0201681 70.2778626,31.7613445 L70.3145038,26.2521008 L70.3145038,26.2521008 Z M69.8015267,27.4722689 L69.8015267,27.5462185 C69.6916031,28.6554622 69.5083969,29.9495798 69.2152672,30.9109244 C69.1419847,31.1327731 69.0320611,31.2067227 68.848855,31.2067227 C68.8122137,31.2067227 68.7389313,31.2067227 68.7022901,31.1697479 C68.519084,31.1327731 68.4458015,30.9848739 68.4458015,30.8 C68.4458015,30.7630252 68.4458015,30.6890756 68.4824427,30.6151261 C68.7755725,29.7277311 68.9954198,28.4705882 69.0687023,27.4352941 C69.0687023,27.2134454 69.2519084,27.102521 69.4351145,27.102521 L69.4717557,27.102521 C69.6549618,27.1394958 69.8015267,27.2504202 69.8015267,27.4722689 L69.8015267,27.4722689 Z M71.9633588,27.0655462 C72.1099237,27.0655462 72.2198473,27.1394958 72.2564885,27.3613445 C72.4396947,28.0638655 72.5862595,29.0991597 72.659542,29.9495798 L72.659542,30.0235294 C72.659542,30.2453782 72.5129771,30.3563025 72.3664122,30.3932773 L72.2931298,30.3932773 C72.1465649,30.3932773 72,30.2823529 71.9633588,30.097479 C71.8900763,29.210084 71.7435115,28.2117647 71.5969466,27.5092437 C71.5969466,27.287395 71.7068702,27.1394958 71.8534351,27.102521 C71.8900763,27.0655462 71.9267176,27.0655462 71.9633588,27.0655462 L71.9633588,27.0655462 Z M73.0992366,28.1378151 C72.8793893,28.1378151 72.7694656,27.9529412 72.7694656,27.6571429 C72.7694656,27.3983193 72.8793893,27.1764706 73.0992366,27.1764706 L78.5221374,27.1764706 C78.7419847,27.1764706 78.8519084,27.3613445 78.8519084,27.6571429 C78.8519084,27.9159664 78.7419847,28.1378151 78.5221374,28.1008403 L76.1038168,28.1008403 L76.1038168,30.8 L78.8885496,30.8 C79.1083969,30.8 79.2183206,30.9848739 79.2183206,31.2806723 C79.2183206,31.5764706 79.1083969,31.7613445 78.8885496,31.7613445 L72.659542,31.7613445 C72.4396947,31.7613445 72.329771,31.5764706 72.329771,31.2806723 C72.329771,31.0218487 72.4396947,30.8369748 72.659542,30.8369748 L75.2610687,30.8369748 L75.2610687,28.1378151 L73.0992366,28.1378151 L73.0992366,28.1378151 Z M73.0259542,20.9647059 C72.8061069,20.9647059 72.6961832,20.7798319 72.6961832,20.4840336 C72.6961832,20.2252101 72.8061069,20.0403361 73.0259542,20.0403361 L78.6687023,20.0773109 C78.8885496,20.0773109 78.9984733,20.2621849 78.9984733,20.5210084 C78.9984733,20.8168067 78.8885496,21.0016807 78.6687023,21.0016807 L73.0259542,20.9647059 L73.0259542,20.9647059 Z M73.7221374,21.6302521 C73.7954198,21.4453782 73.9053435,21.3714286 74.0519084,21.3714286 C74.1251908,21.3714286 74.1618321,21.3714286 74.2351145,21.4084034 C74.4183206,21.4823529 74.5282443,21.6302521 74.5282443,21.8151261 C74.5282443,21.8890756 74.5282443,21.9630252 74.4916031,22.0369748 C74.2717557,22.5915966 73.9419847,23.3310924 73.6122137,23.8487395 C73.5755725,23.9226891 73.5389313,23.9966387 73.5389313,24.0705882 C73.5389313,24.1445378 73.5755725,24.2184874 73.6122137,24.292437 C73.9053435,24.810084 74.2717557,25.4756303 74.5282443,26.0302521 C74.5648855,26.1042017 74.6015267,26.1781513 74.6015267,26.2521008 C74.6015267,26.4 74.5282443,26.5478992 74.3816794,26.6588235 C74.3083969,26.6957983 74.2351145,26.7327731 74.1618321,26.7327731 C74.0152672,26.7327731 73.8687023,26.6588235 73.8320611,26.4739496 C73.6122137,25.8823529 73.2458015,25.1058824 72.9526718,24.5512605 C72.8427481,24.4033613 72.8061069,24.2554622 72.8061069,24.0705882 C72.8061069,23.8857143 72.8793893,23.7008403 72.989313,23.4789916 C73.2458015,22.9613445 73.5389313,22.2588235 73.7221374,21.6302521 L73.7221374,21.6302521 Z M76.5068702,21.8521008 C76.5068702,21.9260504 76.5068702,22 76.470229,22.0739496 C76.2503817,22.6655462 75.9572519,23.2941176 75.6274809,23.8487395 C75.5908397,23.9226891 75.5541985,23.9966387 75.5541985,24.0705882 C75.5541985,24.1445378 75.5908397,24.2184874 75.6274809,24.292437 C75.9572519,24.810084 76.2870229,25.512605 76.5068702,26.0672269 C76.5435115,26.1781513 76.5435115,26.2521008 76.5435115,26.3260504 C76.5435115,26.5109244 76.470229,26.6218487 76.3236641,26.6957983 C76.2503817,26.7327731 76.1770992,26.7697479 76.1038168,26.7697479 C75.9572519,26.7697479 75.810687,26.6588235 75.7740458,26.4739496 C75.5541985,25.8453782 75.2244275,25.1058824 74.8946565,24.5512605 C74.821374,24.4033613 74.7480916,24.2554622 74.7480916,24.0705882 C74.7480916,23.8857143 74.7847328,23.7008403 74.9312977,23.5159664 C75.2244275,22.9613445 75.5175573,22.2957983 75.7007634,21.6672269 C75.7740458,21.4823529 75.8839695,21.4084034 76.0305344,21.4084034 C76.0671756,21.4084034 76.140458,21.4453782 76.2137405,21.4453782 C76.3969466,21.5563025 76.5068702,21.7042017 76.5068702,21.8521008 L76.5068702,21.8521008 Z M78.5587786,21.8890756 C78.5587786,21.9630252 78.5587786,22.0369748 78.5221374,22.1109244 C78.3022901,22.6285714 77.9725191,23.3680672 77.6793893,23.8857143 C77.6061069,23.9966387 77.5694656,24.0336134 77.5694656,24.107563 C77.5694656,24.1815126 77.6061069,24.2184874 77.6427481,24.3294118 C77.9725191,24.810084 78.3755725,25.512605 78.6320611,26.0672269 C78.6687023,26.1411765 78.7053435,26.2521008 78.7053435,26.3260504 C78.7053435,26.5109244 78.6320611,26.6588235 78.4854962,26.7327731 C78.4122137,26.7697479 78.3022901,26.8067227 78.2290076,26.8067227 C78.0824427,26.8067227 77.9725191,26.7327731 77.8992366,26.5848739 C77.6427481,25.9193277 77.2396947,25.2168067 76.9099237,24.6621849 C76.8,24.5142857 76.7633588,24.3294118 76.7633588,24.1815126 C76.7633588,23.9966387 76.8366412,23.8117647 76.9465649,23.6268908 C77.2763359,23.0722689 77.5694656,22.3697479 77.7526718,21.7781513 C77.789313,21.6302521 77.9358779,21.5193277 78.0824427,21.5193277 C78.1557252,21.5193277 78.1923664,21.5193277 78.2656489,21.5563025 C78.4854962,21.5193277 78.5587786,21.7042017 78.5587786,21.8890756 L78.5587786,21.8890756 Z" id="Shape"></path>
                                <path d="M83.6885496,27.7310924 L83.6885496,27.9159664 C83.3221374,29.1361345 82.8091603,30.6890756 82.1862595,31.7983193 C82.1129771,31.9831933 81.9664122,32.0571429 81.8198473,32.0571429 C81.7465649,32.0571429 81.6366412,32.0201681 81.5633588,31.9462185 C81.4167939,31.8352941 81.3435115,31.6504202 81.3435115,31.502521 C81.3435115,31.4285714 81.3801527,31.3176471 81.4167939,31.2436975 C82.0030534,30.2084034 82.5526718,28.7294118 82.8824427,27.5462185 C82.9557252,27.3243697 83.1022901,27.2134454 83.2854962,27.2134454 C83.3221374,27.2134454 83.3954198,27.2134454 83.4320611,27.2504202 C83.578626,27.3613445 83.6885496,27.5462185 83.6885496,27.7310924 L83.6885496,27.7310924 Z M83.5419847,24.8840336 C83.5419847,24.994958 83.5053435,25.1428571 83.4320611,25.2537815 C83.3587786,25.3647059 83.248855,25.4386555 83.1022901,25.4386555 C82.9923664,25.4386555 82.8458015,25.3647059 82.7358779,25.2907563 C82.3328244,24.8840336 81.8564885,24.4773109 81.4900763,24.1815126 C81.3801527,24.107563 81.3435115,23.9596639 81.3435115,23.8117647 C81.3435115,23.7008403 81.3801527,23.589916 81.4167939,23.4789916 C81.5267176,23.3310924 81.6366412,23.2941176 81.7832061,23.2941176 C81.8564885,23.2941176 81.929771,23.3310924 82.0030534,23.3680672 C82.4427481,23.6638655 82.9923664,24.107563 83.3587786,24.5512605 C83.4687023,24.5882353 83.5419847,24.7361345 83.5419847,24.8840336 L83.5419847,24.8840336 Z M83.8717557,21.5563025 C83.8717557,21.6672269 83.8351145,21.8151261 83.7618321,21.8890756 C83.6519084,22 83.5419847,22.0739496 83.4320611,22.0739496 C83.3221374,22.0739496 83.1755725,22 83.0656489,21.8890756 C82.7358779,21.4823529 82.2229008,20.9647059 81.8564885,20.6689076 C81.7465649,20.594958 81.7099237,20.4470588 81.7099237,20.2991597 C81.7099237,20.1882353 81.7465649,20.0773109 81.8198473,19.9663866 C81.929771,19.8554622 82.0396947,19.7445378 82.1862595,19.7445378 C82.2961832,19.7445378 82.3694656,19.7815126 82.4427481,19.8554622 C82.8091603,20.1512605 83.3587786,20.7058824 83.7251908,21.1495798 C83.8351145,21.297479 83.8717557,21.4453782 83.8717557,21.5563025 L83.8717557,21.5563025 Z M90.0641221,26.4369748 C90.0641221,26.2151261 90.2473282,26.0672269 90.4671756,26.0672269 C90.7236641,26.0672269 90.9068702,26.2151261 90.9068702,26.4369748 L90.870229,32.0201681 C90.870229,32.2789916 90.6870229,32.4268908 90.4305344,32.4268908 C90.1740458,32.4268908 90.0274809,32.2789916 90.0274809,32.0201681 L90.0274809,29.8756303 L85.4473282,29.8386555 C85.2274809,30.8 84.8610687,31.502521 84.3480916,32.1310924 C84.2748092,32.2420168 84.1648855,32.3159664 84.0549618,32.3159664 C83.9450382,32.3159664 83.7984733,32.2420168 83.7251908,32.1310924 C83.6152672,32.0201681 83.578626,31.9092437 83.578626,31.7613445 C83.578626,31.6504202 83.6152672,31.5394958 83.6885496,31.4655462 C84.5679389,30.3563025 84.8977099,29.5428571 84.8977099,26.4739496 C84.8977099,26.2521008 85.080916,26.1042017 85.3374046,26.1042017 C85.5938931,26.1042017 85.740458,26.2151261 85.740458,26.4739496 L85.740458,26.9915966 L90.0641221,26.9915966 L90.0641221,26.4369748 L90.0641221,26.4369748 Z M84.2748092,23.0722689 C84.1282443,23.0722689 84.0549618,22.9243697 84.0549618,22.702521 C84.0549618,22.4806723 84.1282443,22.3327731 84.2748092,22.3327731 L86.2167939,22.3327731 C86.6931298,22.3327731 86.9129771,22.5915966 86.9129771,23.1831933 C86.9129771,23.9596639 86.8030534,24.810084 86.6564885,25.2537815 C86.5465649,25.6605042 86.3267176,25.8823529 85.9236641,25.8823529 C85.6671756,25.8823529 85.4839695,25.8453782 85.3007634,25.7714286 C85.1908397,25.7344538 85.080916,25.5865546 85.080916,25.4016807 L85.080916,25.2907563 C85.1175573,25.1058824 85.2274809,25.0319328 85.3374046,25.0319328 L85.410687,25.0319328 C85.5206107,25.0689076 85.5938931,25.1058824 85.7038168,25.1058824 C85.8870229,25.1058824 85.9236641,25.0319328 85.9969466,24.8840336 C86.070229,24.5882353 86.1801527,23.9226891 86.1801527,23.3310924 C86.1801527,23.1462185 86.1068702,23.0722689 85.9603053,23.0722689 L85.4473282,23.0722689 C85.410687,24.2184874 85.0442748,25.1428571 84.2748092,25.8084034 C84.2015267,25.8823529 84.1282443,25.9193277 84.0183206,25.9193277 C83.9083969,25.9193277 83.7984733,25.8823529 83.7618321,25.7714286 C83.6885496,25.6605042 83.6519084,25.5495798 83.6519084,25.4386555 C83.6519084,25.3277311 83.6885496,25.2168067 83.7984733,25.1428571 C84.421374,24.6252101 84.6778626,23.9966387 84.751145,23.0722689 L84.2748092,23.0722689 L84.2748092,23.0722689 Z M91.8229008,20.6319328 C92.0061069,20.6319328 92.1160305,20.8168067 92.1160305,21.0756303 C92.1160305,21.3344538 92.0061069,21.4823529 91.8229008,21.4823529 L84.3480916,21.4453782 C84.1282443,21.4453782 84.0549618,21.297479 84.0549618,21.0386555 C84.0549618,20.7798319 84.1648855,20.594958 84.3480916,20.594958 L87.4992366,20.594958 L87.4992366,19.9294118 C87.4992366,19.6705882 87.6824427,19.5226891 87.9389313,19.5596639 C88.1954198,19.5596639 88.378626,19.707563 88.378626,19.9294118 L88.378626,20.6319328 L91.8229008,20.6319328 L91.8229008,20.6319328 Z M85.7038168,27.8420168 C85.7038168,28.2117647 85.6671756,28.6184874 85.5938931,28.9882353 L90.0641221,29.0252101 L90.0641221,27.8789916 L85.7038168,27.8420168 L85.7038168,27.8420168 Z M87.6824427,22.3697479 C87.719084,22.4436975 87.7557252,22.5176471 87.7557252,22.5915966 C87.7557252,22.7394958 87.719084,22.8504202 87.6091603,22.9243697 C87.5358779,22.9983193 87.4625954,23.0352941 87.389313,23.0352941 C87.2793893,23.0352941 87.2061069,22.9983193 87.1328244,22.887395 C87.0229008,22.702521 86.7664122,22.3697479 86.5832061,22.1478992 C86.5465649,22.1109244 86.5099237,22 86.5099237,21.8890756 C86.5099237,21.8151261 86.5465649,21.7042017 86.6198473,21.6302521 C86.6931298,21.5932773 86.7664122,21.5193277 86.8763359,21.5193277 C86.9496183,21.5193277 87.0229008,21.5563025 87.0961832,21.5932773 C87.3160305,21.8521008 87.5358779,22.1478992 87.6824427,22.3697479 L87.6824427,22.3697479 Z M88.2320611,25.697479 C88.2320611,25.9193277 88.048855,26.0302521 87.8656489,25.9932773 C87.6458015,25.9932773 87.4992366,25.8823529 87.4992366,25.697479 L87.4992366,23.4789916 C87.4992366,23.2941176 87.6091603,23.1831933 87.7557252,23.1462185 C87.7557252,23.1462185 87.7557252,23.1092437 87.7923664,23.1092437 C88.1221374,22.702521 88.4152672,22.2218487 88.6717557,21.7411765 C88.7450382,21.6302521 88.8183206,21.5563025 88.9282443,21.5563025 C89.0015267,21.5563025 89.0381679,21.5932773 89.1114504,21.6302521 C89.2580153,21.7042017 89.2946565,21.8521008 89.2946565,22 C89.2946565,22.0739496 89.2946565,22.1109244 89.2580153,22.1848739 C88.9648855,22.702521 88.5618321,23.2941176 88.2687023,23.7008403 L88.2320611,25.697479 L88.2320611,25.697479 Z M89.7343511,24.994958 C89.9908397,24.9210084 90.210687,24.8470588 90.3572519,24.810084 C90.4305344,24.810084 90.4671756,24.7731092 90.5038168,24.7731092 C90.6503817,24.7731092 90.7236641,24.8470588 90.7603053,25.0319328 C90.7603053,25.1058824 90.7969466,25.1428571 90.7969466,25.1798319 C90.7969466,25.3647059 90.7236641,25.4756303 90.5770992,25.512605 C90.1740458,25.697479 89.4778626,25.8823529 88.9282443,25.9932773 L88.8549618,25.9932773 C88.7083969,25.9932773 88.5984733,25.8823529 88.5618321,25.6605042 L88.5618321,25.5865546 C88.5618321,25.4016807 88.6717557,25.2537815 88.7816794,25.2537815 C88.8549618,25.2168067 88.9282443,25.2168067 89.0015267,25.2168067 L89.0015267,23.405042 C89.0015267,22.887395 89.1480916,22.6655462 89.4778626,22.5915966 C89.9908397,22.4806723 90.7236641,22.2218487 91.0900763,22.0369748 C91.1633588,22 91.2366412,22 91.3099237,22 C91.4198473,22 91.529771,22.0739496 91.6030534,22.2218487 C91.6396947,22.2957983 91.6396947,22.3697479 91.6396947,22.4436975 C91.6396947,22.5546218 91.5664122,22.6655462 91.4564885,22.702521 C91.3099237,22.7394958 91.1633588,22.8134454 91.0167939,22.887395 C91.2,23.8487395 91.6396947,24.6621849 92.1160305,25.1058824 C92.2259542,25.2168067 92.2625954,25.3277311 92.2625954,25.4756303 C92.2625954,25.5865546 92.2259542,25.697479 92.189313,25.7714286 C92.1160305,25.8823529 92.0061069,25.9563025 91.8961832,25.9563025 C91.7862595,25.9563025 91.7129771,25.9193277 91.6396947,25.8453782 C91.0167939,25.1798319 90.540458,24.1815126 90.3572519,23.1092437 C90.210687,23.1462185 90.0274809,23.1831933 89.9175573,23.2571429 C89.7709924,23.2941176 89.7343511,23.3680672 89.7343511,23.589916 L89.7343511,24.994958 L89.7343511,24.994958 Z" id="Shape"></path>
                                <path d="M100.103817,24.9210084 C100.323664,24.9210084 100.433588,25.1058824 100.433588,25.4016807 C100.433588,25.6605042 100.323664,25.8823529 100.103817,25.8823529 L94.5709924,25.8453782 C94.351145,25.8453782 94.2412214,25.6235294 94.2412214,25.3647059 C94.2412214,25.0689076 94.351145,24.8840336 94.5709924,24.8840336 L97.7221374,24.8840336 C98.0519084,24.1445378 98.3450382,23.3310924 98.4916031,22.6285714 C98.5648855,22.4067227 98.6748092,22.2957983 98.8580153,22.2957983 L99.0045802,22.2957983 C99.1877863,22.3327731 99.3343511,22.5176471 99.3343511,22.7394958 C99.3343511,22.8134454 99.3343511,22.8504202 99.2977099,22.9243697 C99.1145038,23.589916 98.821374,24.2554622 98.5282443,24.8840336 L100.103817,24.8840336 L100.103817,24.9210084 Z M99.9206107,21.1495798 C100.140458,21.1495798 100.21374,21.3714286 100.21374,21.6302521 C100.21374,21.8890756 100.103817,22.1109244 99.9206107,22.1109244 L94.8641221,22.0739496 C94.6442748,22.0739496 94.5343511,21.8521008 94.5343511,21.5932773 C94.5343511,21.3344538 94.6442748,21.112605 94.8641221,21.1495798 L96.8427481,21.1495798 L96.8427481,20.0033613 C96.8427481,19.7445378 97.0259542,19.6336134 97.2824427,19.6336134 C97.5389313,19.6336134 97.7587786,19.7445378 97.7587786,20.0033613 L97.7587786,21.1495798 L99.9206107,21.1495798 L99.9206107,21.1495798 Z M99.7007634,30.7260504 C99.7007634,31.5394958 99.3709924,31.8722689 98.6748092,31.8722689 L95.9633588,31.8722689 C95.3038168,31.8722689 94.9374046,31.5394958 94.9374046,30.7260504 L94.9374046,28.1008403 C94.9374046,27.287395 95.3038168,26.9546218 95.9633588,26.9546218 L98.6748092,26.9546218 C99.3709924,26.9546218 99.7007634,27.287395 99.7007634,28.1008403 L99.7007634,30.7260504 L99.7007634,30.7260504 Z M95.7801527,22.2957983 C95.9267176,22.2957983 96.0732824,22.4067227 96.1465649,22.5546218 C96.329771,22.9613445 96.5129771,23.5159664 96.6229008,23.9966387 C96.6229008,24.0705882 96.659542,24.107563 96.659542,24.1445378 C96.659542,24.3663866 96.5496183,24.5142857 96.329771,24.5882353 C96.2931298,24.6252101 96.2198473,24.6252101 96.1832061,24.6252101 C96.0366412,24.6252101 95.8900763,24.5142857 95.8167939,24.3294118 C95.7068702,23.8857143 95.5603053,23.3680672 95.4137405,22.9613445 C95.3770992,22.887395 95.3770992,22.7764706 95.3770992,22.7394958 C95.3770992,22.5546218 95.4503817,22.4436975 95.6335878,22.3327731 C95.670229,22.2957983 95.7435115,22.2957983 95.7801527,22.2957983 L95.7801527,22.2957983 Z M98.4916031,30.9109244 C98.7114504,30.9109244 98.8580153,30.8 98.8580153,30.5411765 L98.8580153,28.2857143 C98.8580153,27.989916 98.7114504,27.8789916 98.4916031,27.8789916 L96.2198473,27.8789916 C96,27.8789916 95.8534351,27.989916 95.8534351,28.2857143 L95.8534351,30.5411765 C95.8534351,30.8 96,30.9109244 96.2198473,30.9109244 L98.4916031,30.9109244 L98.4916031,30.9109244 Z M100.8,21.1865546 C100.8,20.3731092 101.129771,20.0403361 101.825954,20.0403361 L103.951145,20.0403361 C104.574046,20.0403361 104.903817,20.4470588 104.903817,21.0016807 C104.903817,21.1865546 104.867176,21.3714286 104.793893,21.5563025 C104.464122,22.5546218 104.024427,23.589916 103.51145,24.4773109 C103.474809,24.5882353 103.438168,24.6621849 103.438168,24.7361345 C103.438168,24.810084 103.474809,24.8840336 103.548092,24.9579832 C104.317557,25.9193277 104.940458,27.102521 104.940458,28.5815126 C104.940458,30.0235294 104.39084,30.6521008 103.364885,30.6521008 C102.998473,30.6521008 102.558779,30.6151261 102.30229,30.5411765 C102.082443,30.4672269 101.972519,30.3193277 101.972519,30.0605042 L101.972519,29.912605 C102.00916,29.6537815 102.155725,29.5058824 102.338931,29.5058824 L102.448855,29.5058824 C102.668702,29.5428571 102.998473,29.6168067 103.254962,29.6168067 C103.80458,29.6168067 104.024427,29.3579832 104.061069,28.507563 C104.061069,27.3983193 103.438168,26.2890756 102.741985,25.3647059 C102.59542,25.1798319 102.558779,24.9579832 102.558779,24.7361345 C102.558779,24.5512605 102.59542,24.3663866 102.705344,24.1815126 C103.181679,23.405042 103.658015,22.3327731 103.877863,21.4084034 C103.914504,21.3344538 103.914504,21.2605042 103.914504,21.2235294 C103.914504,21.0756303 103.841221,21.0386555 103.658015,21.0386555 L102.00916,21.0386555 C101.789313,21.0386555 101.679389,21.112605 101.679389,21.3714286 L101.642748,31.9092437 C101.642748,32.205042 101.459542,32.3529412 101.203053,32.3529412 C100.946565,32.3529412 100.763359,32.205042 100.8,31.9092437 L100.8,21.1865546 L100.8,21.1865546 Z" id="Shape"></path>
                                <path d="M110.656489,22.3327731 C110.876336,22.3327731 110.98626,22.5176471 110.98626,22.8134454 C110.98626,23.1092437 110.876336,23.2941176 110.656489,23.2941176 L109.81374,23.2941176 L109.81374,25.8823529 C110.033588,25.7344538 110.253435,25.6235294 110.436641,25.4756303 C110.546565,25.4016807 110.619847,25.3647059 110.656489,25.3647059 C110.803053,25.3647059 110.912977,25.4756303 110.98626,25.6605042 C111.022901,25.7344538 111.022901,25.8453782 111.022901,25.8823529 C111.022901,26.0302521 110.949618,26.1781513 110.839695,26.2521008 C110.509924,26.4739496 110.143511,26.6957983 109.81374,26.9176471 L109.81374,30.9848739 C109.81374,31.7983193 109.483969,32.1680672 108.641221,32.1680672 C108.31145,32.1680672 107.981679,32.1310924 107.761832,32.0571429 C107.578626,31.9831933 107.468702,31.8352941 107.468702,31.6134454 L107.468702,31.4655462 C107.505344,31.2067227 107.651908,31.0957983 107.798473,31.0957983 L107.908397,31.0957983 C108.091603,31.1697479 108.31145,31.2067227 108.494656,31.2067227 C108.861069,31.2067227 108.934351,31.1327731 108.934351,30.7630252 L108.934351,27.3613445 C108.60458,27.5092437 108.238168,27.6571429 107.908397,27.805042 C107.871756,27.805042 107.798473,27.8420168 107.761832,27.8420168 C107.578626,27.8420168 107.468702,27.7310924 107.39542,27.4722689 C107.358779,27.3983193 107.358779,27.3243697 107.358779,27.2504202 C107.358779,27.0655462 107.432061,26.9176471 107.615267,26.8806723 C108.054962,26.7327731 108.494656,26.5478992 108.934351,26.3260504 L108.934351,23.2941176 L107.725191,23.2941176 C107.505344,23.2941176 107.39542,23.1092437 107.39542,22.8134454 C107.39542,22.5546218 107.505344,22.3327731 107.725191,22.3327731 L108.970992,22.3327731 L108.970992,20.0033613 C108.970992,19.7445378 109.154198,19.5966387 109.410687,19.5966387 C109.667176,19.5966387 109.850382,19.7445378 109.850382,20.0033613 L109.850382,22.3327731 L110.656489,22.3327731 L110.656489,22.3327731 Z M116.299237,24.7361345 C116.812214,24.7361345 117.105344,25.0689076 117.105344,25.5495798 C117.105344,25.7714286 117.068702,25.9932773 116.922137,26.2521008 C116.445802,27.3613445 115.749618,28.4336134 114.90687,29.3210084 C115.676336,30.0605042 116.592366,30.6890756 117.654962,31.1327731 C117.838168,31.2067227 117.948092,31.3915966 117.948092,31.6134454 C117.948092,31.687395 117.948092,31.7613445 117.91145,31.8722689 C117.801527,32.1310924 117.654962,32.2420168 117.508397,32.2420168 C117.435115,32.2420168 117.361832,32.2420168 117.325191,32.205042 C116.116031,31.6134454 115.126718,30.9109244 114.283969,30.0235294 C113.331298,30.9109244 112.19542,31.6504202 111.022901,32.1310924 C110.912977,32.1680672 110.839695,32.205042 110.766412,32.205042 C110.583206,32.205042 110.473282,32.0941176 110.4,31.8722689 C110.363359,31.7613445 110.363359,31.687395 110.363359,31.6134454 C110.363359,31.4285714 110.473282,31.2806723 110.656489,31.2067227 C111.719084,30.7630252 112.781679,30.1344538 113.69771,29.3210084 C113.184733,28.6554622 112.745038,27.9159664 112.415267,27.0655462 C112.232061,26.5848739 112.085496,26.1411765 111.938931,25.6235294 L111.645802,25.6235294 C111.425954,25.6235294 111.316031,25.4756303 111.316031,25.1428571 C111.316031,24.8470588 111.425954,24.6991597 111.645802,24.6991597 L113.880916,24.6991597 L113.880916,22.6285714 L111.535878,22.6285714 C111.316031,22.6285714 111.206107,22.4067227 111.206107,22.1478992 C111.206107,21.8521008 111.316031,21.6672269 111.535878,21.6672269 L113.880916,21.6672269 L113.880916,20.0033613 C113.880916,19.7445378 114.064122,19.6336134 114.320611,19.6336134 C114.577099,19.6336134 114.760305,19.7815126 114.760305,20.0033613 L114.760305,21.6672269 L117.581679,21.6672269 C117.801527,21.6672269 117.91145,21.8890756 117.91145,22.1478992 C117.91145,22.4436975 117.801527,22.6285714 117.581679,22.6285714 L114.760305,22.6285714 L114.760305,24.6991597 L116.299237,24.7361345 L116.299237,24.7361345 Z M112.708397,25.6235294 C113.074809,26.7697479 113.587786,27.805042 114.320611,28.6554622 C115.053435,27.9159664 115.676336,26.9915966 116.079389,25.9932773 C116.116031,25.9193277 116.116031,25.8453782 116.116031,25.8084034 C116.116031,25.697479 116.042748,25.6605042 115.932824,25.6605042 L112.708397,25.6235294 L112.708397,25.6235294 Z" id="Shape"></path>
                                <path d="M121.282443,27.8420168 C121.282443,27.3243697 121.319084,26.7327731 121.392366,26.1411765 C121.172519,26.4369748 120.989313,26.6957983 120.732824,26.9546218 C120.659542,27.0285714 120.549618,27.0655462 120.476336,27.0655462 C120.366412,27.0655462 120.256489,26.9915966 120.146565,26.8806723 C120.073282,26.7697479 120.036641,26.6588235 120.036641,26.5478992 C120.036641,26.4 120.073282,26.2890756 120.183206,26.1781513 C121.025954,25.3647059 121.722137,24.2554622 122.198473,23.1092437 C122.271756,22.9243697 122.418321,22.8504202 122.528244,22.8504202 C122.601527,22.8504202 122.674809,22.887395 122.748092,22.9243697 C122.894656,23.0352941 122.967939,23.1831933 122.967939,23.3310924 C122.967939,23.405042 122.967939,23.4789916 122.931298,23.5529412 C122.71145,24.0336134 122.454962,24.5512605 122.125191,25.0689076 L122.08855,31.9831933 C122.08855,32.2420168 121.941985,32.389916 121.648855,32.389916 C121.392366,32.389916 121.20916,32.2420168 121.20916,31.9831933 L121.282443,27.8420168 L121.282443,27.8420168 Z M122.858015,20.2252101 C122.858015,20.2991597 122.821374,20.3731092 122.784733,20.4840336 C122.271756,21.4453782 121.575573,22.4067227 120.806107,23.1462185 C120.732824,23.2201681 120.622901,23.2941176 120.512977,23.2941176 C120.403053,23.2941176 120.29313,23.2201681 120.219847,23.1092437 C120.146565,22.9983193 120.109924,22.887395 120.109924,22.7764706 C120.109924,22.6285714 120.183206,22.4806723 120.256489,22.4067227 C120.952672,21.7411765 121.575573,20.9277311 122.015267,20.0403361 C122.08855,19.892437 122.198473,19.8184874 122.345038,19.8184874 C122.418321,19.8184874 122.491603,19.8554622 122.601527,19.892437 C122.784733,19.9294118 122.858015,20.0773109 122.858015,20.2252101 L122.858015,20.2252101 Z M124.360305,25.1058824 L124.360305,25.1798319 C124.21374,26.9546218 123.920611,28.9512605 123.370992,30.3932773 C123.29771,30.5781513 123.151145,30.6890756 123.00458,30.6890756 C122.931298,30.6890756 122.858015,30.6521008 122.784733,30.6151261 C122.638168,30.5411765 122.528244,30.3563025 122.528244,30.1714286 C122.528244,30.097479 122.528244,30.0235294 122.601527,29.9495798 C123.114504,28.6184874 123.407634,26.6957983 123.517557,25.0319328 C123.554198,24.810084 123.664122,24.6252101 123.920611,24.6252101 L123.993893,24.6252101 C124.21374,24.7361345 124.360305,24.8470588 124.360305,25.1058824 L124.360305,25.1058824 Z M123.517557,23.5159664 C123.29771,23.5159664 123.187786,23.3310924 123.187786,23.0352941 C123.187786,22.7764706 123.29771,22.5915966 123.517557,22.5915966 L125.019847,22.5915966 L125.019847,20.2252101 C125.019847,19.9663866 125.166412,19.8184874 125.459542,19.8184874 C125.716031,19.8184874 125.899237,19.9663866 125.899237,20.2252101 L125.899237,22.5915966 L127.291603,22.5915966 C127.51145,22.5915966 127.621374,22.7764706 127.621374,23.0722689 C127.621374,23.3310924 127.51145,23.5529412 127.291603,23.5529412 L125.899237,23.5529412 L125.862595,32.0201681 C125.862595,32.2789916 125.679389,32.4268908 125.422901,32.4268908 C125.166412,32.4268908 125.019847,32.2789916 125.019847,32.0201681 L125.056489,23.5159664 L123.517557,23.5159664 L123.517557,23.5159664 Z M126.558779,20.0773109 C126.668702,20.0773109 126.778626,20.1512605 126.815267,20.2252101 C127.145038,20.6689076 127.401527,21.1865546 127.548092,21.5193277 C127.584733,21.5932773 127.584733,21.6302521 127.584733,21.7042017 C127.584733,21.8521008 127.474809,22 127.364885,22.0739496 C127.291603,22.1109244 127.218321,22.1478992 127.145038,22.1478992 C127.035115,22.1478992 126.925191,22.0739496 126.851908,21.9260504 C126.668702,21.5563025 126.412214,21.0386555 126.192366,20.6689076 C126.155725,20.6319328 126.119084,20.5579832 126.155725,20.4840336 C126.155725,20.3731092 126.192366,20.2252101 126.338931,20.1512605 C126.375573,20.1142857 126.485496,20.0773109 126.558779,20.0773109 L126.558779,20.0773109 Z M126.412214,25.1058824 C126.412214,24.8840336 126.522137,24.7361345 126.668702,24.6621849 L126.815267,24.6621849 C126.998473,24.6621849 127.145038,24.7731092 127.181679,24.9579832 C127.548092,26.2151261 127.80458,27.8420168 127.987786,29.394958 L127.987786,29.4319328 C127.987786,29.6907563 127.877863,29.8756303 127.621374,29.9495798 L127.51145,29.9495798 C127.328244,29.9495798 127.145038,29.8016807 127.145038,29.5428571 C127.035115,28.0638655 126.778626,26.4369748 126.448855,25.2537815 C126.375573,25.2168067 126.412214,25.1428571 126.412214,25.1058824 L126.412214,25.1058824 Z M127.841221,24.5142857 C127.621374,24.5142857 127.51145,24.3294118 127.51145,24.0336134 C127.51145,23.7378151 127.621374,23.5529412 127.841221,23.5529412 L130.662595,23.5529412 C130.845802,23.5529412 130.992366,23.7378151 130.992366,24.0336134 C130.992366,24.3294118 130.882443,24.5142857 130.662595,24.5142857 L129.819847,24.5142857 L129.783206,30.9848739 C129.783206,31.7983193 129.416794,32.205042 128.537405,32.205042 C128.170992,32.205042 127.694656,32.1680672 127.438168,32.0941176 C127.254962,32.0201681 127.145038,31.8722689 127.145038,31.6134454 L127.145038,31.502521 C127.181679,31.2067227 127.328244,31.0957983 127.474809,31.0957983 L127.548092,31.0957983 C127.767939,31.1697479 128.134351,31.2067227 128.39084,31.2067227 C128.720611,31.2067227 128.867176,31.0957983 128.867176,30.7260504 L128.903817,24.4773109 L127.841221,24.5142857 L127.841221,24.5142857 Z M130.442748,20.6689076 C130.662595,20.6689076 130.772519,20.8537815 130.772519,21.1495798 C130.772519,21.4084034 130.662595,21.6302521 130.442748,21.6302521 L128.09771,21.6302521 C127.877863,21.6302521 127.80458,21.4084034 127.80458,21.1495798 C127.80458,20.8537815 127.914504,20.6689076 128.09771,20.6689076 L130.442748,20.6689076 L130.442748,20.6689076 Z" id="Shape"></path>
                                <path d="M141.28855,23.405042 C141.471756,23.4420168 141.545038,23.5529412 141.545038,23.7378151 L141.545038,23.7747899 C141.545038,23.9966387 141.471756,24.0705882 141.28855,24.107563 L137.99084,24.292437 L137.99084,24.6621849 C137.99084,24.994958 138.064122,25.0319328 139.712977,25.0319328 C141.838168,25.0319328 142.021374,24.9579832 142.131298,24.8470588 C142.241221,24.7361345 142.277863,24.6252101 142.314504,24.4773109 C142.351145,24.292437 142.49771,24.1815126 142.680916,24.1815126 L142.79084,24.1815126 C143.010687,24.2184874 143.157252,24.3663866 143.157252,24.5882353 L143.157252,24.6991597 C143.120611,25.0319328 143.010687,25.2537815 142.864122,25.4016807 C142.644275,25.6235294 142.314504,25.7344538 139.859542,25.7344538 C137.551145,25.7344538 137.221374,25.5495798 137.221374,24.7361345 L137.221374,24.3294118 L135.499237,24.4403361 C135.316031,24.4403361 135.206107,24.3294118 135.206107,24.107563 C135.206107,23.8857143 135.316031,23.7747899 135.462595,23.7008403 L137.221374,23.589916 L137.221374,22.7394958 L135.352672,22.7394958 C134.98626,22.7394958 134.839695,22.887395 134.839695,23.2201681 C134.839695,25.6235294 134.729771,27.287395 134.619847,28.5445378 C134.473282,29.9865546 134.143511,31.0588235 133.81374,31.8722689 C133.740458,32.0941176 133.593893,32.1680672 133.447328,32.1680672 C133.374046,32.1680672 133.300763,32.1310924 133.19084,32.0941176 C133.044275,32.0201681 132.970992,31.8722689 132.970992,31.687395 C132.970992,31.5764706 132.970992,31.4655462 133.044275,31.3546218 C133.410687,30.5042017 133.667176,29.5428571 133.81374,28.3226891 C133.960305,27.0655462 133.996947,25.4016807 133.996947,22.9613445 C133.996947,22.1848739 134.363359,21.8151261 135.059542,21.8151261 L137.624427,21.8151261 L137.624427,19.8554622 C137.624427,19.6336134 137.807634,19.4857143 138.064122,19.5226891 C138.357252,19.5226891 138.503817,19.6336134 138.503817,19.8554622 L138.503817,20.3361345 L141.91145,20.3361345 C142.094656,20.3361345 142.20458,20.4840336 142.20458,20.7058824 C142.20458,20.9647059 142.131298,21.0756303 141.91145,21.0756303 L138.503817,21.0756303 L138.503817,21.8521008 L142.680916,21.8890756 C143.157252,21.8890756 143.377099,22.1848739 143.377099,22.5176471 C143.377099,22.6655462 143.340458,22.8134454 143.267176,22.9613445 C143.157252,23.2201681 142.937405,23.5529412 142.79084,23.7008403 C142.680916,23.8117647 142.570992,23.8487395 142.49771,23.8487395 C142.387786,23.8487395 142.314504,23.8117647 142.241221,23.7378151 C142.131298,23.6638655 142.094656,23.5529412 142.094656,23.4789916 C142.094656,23.405042 142.131298,23.2941176 142.20458,23.2201681 C142.277863,23.1092437 142.387786,22.9613445 142.461069,22.887395 C142.49771,22.8504202 142.49771,22.8134454 142.49771,22.7764706 C142.49771,22.7394958 142.461069,22.702521 142.387786,22.702521 L138.100763,22.702521 L138.100763,23.5159664 L141.28855,23.405042 L141.28855,23.405042 Z M137.148092,30.7260504 C136.598473,31.3915966 135.975573,31.9092437 135.316031,32.3159664 C135.242748,32.3529412 135.169466,32.389916 135.096183,32.389916 C134.949618,32.389916 134.839695,32.2789916 134.729771,32.1680672 C134.69313,32.0571429 134.656489,31.9831933 134.656489,31.9092437 C134.656489,31.7613445 134.729771,31.5764706 134.912977,31.502521 C135.572519,31.1327731 136.158779,30.6890756 136.671756,30.097479 C136.378626,29.6907563 136.122137,29.210084 135.975573,28.692437 C135.829008,28.9512605 135.682443,29.210084 135.535878,29.4319328 C135.462595,29.5428571 135.316031,29.6168067 135.242748,29.6168067 C135.169466,29.6168067 135.059542,29.5798319 134.98626,29.4689076 C134.912977,29.394958 134.876336,29.2840336 134.876336,29.1731092 C134.876336,29.0621849 134.912977,28.9512605 134.98626,28.8773109 C135.645802,28.0638655 136.085496,26.9546218 136.305344,25.9563025 C136.341985,25.7714286 136.451908,25.6605042 136.635115,25.697479 L136.781679,25.697479 C136.964885,25.7344538 137.074809,25.8453782 137.074809,26.0302521 L137.074809,26.1411765 C137.038168,26.3260504 136.964885,26.4739496 136.891603,26.6957983 L138.137405,26.6957983 C138.577099,26.6957983 138.833588,26.9915966 138.833588,27.3983193 C138.833588,27.5092437 138.833588,27.6201681 138.796947,27.7680672 C138.577099,28.6184874 138.210687,29.4319328 137.770992,30.097479 C138.393893,30.6890756 139.236641,31.0588235 140.189313,31.1697479 C140.665649,31.2436975 141.215267,31.2806723 141.801527,31.2806723 C142.351145,31.2806723 142.974046,31.2436975 143.523664,31.2067227 L143.560305,31.2067227 C143.780153,31.2067227 143.926718,31.3546218 143.963359,31.687395 C143.963359,32.0201681 143.816794,32.205042 143.596947,32.2420168 C143.193893,32.2420168 142.754198,32.2789916 142.351145,32.2789916 C141.508397,32.2789916 140.70229,32.2420168 140.079389,32.1310924 C138.796947,31.8722689 137.807634,31.4285714 137.148092,30.7260504 L137.148092,30.7260504 L137.148092,30.7260504 Z M136.48855,27.4352941 C136.451908,27.5831933 136.378626,27.6941176 136.305344,27.8420168 C136.48855,28.4336134 136.745038,28.9512605 137.074809,29.4319328 C137.40458,28.9142857 137.69771,28.3226891 137.844275,27.6941176 L137.844275,27.5831933 C137.844275,27.4722689 137.770992,27.4352941 137.661069,27.4352941 L136.48855,27.4352941 L136.48855,27.4352941 Z M141.471756,27.5831933 C141.471756,27.3243697 141.361832,27.2504202 141.178626,27.2504202 L140.629008,27.2504202 C140.445802,27.2504202 140.335878,27.3243697 140.335878,27.5831933 C140.299237,28.8403361 140.042748,29.6907563 139.419847,30.3932773 C139.309924,30.5042017 139.2,30.5411765 139.090076,30.5411765 C139.016794,30.5411765 138.90687,30.5042017 138.833588,30.3932773 C138.760305,30.3193277 138.687023,30.2084034 138.723664,30.097479 C138.723664,29.9865546 138.760305,29.8386555 138.870229,29.7647059 C139.346565,29.2840336 139.639695,28.6184874 139.639695,27.3243697 C139.639695,26.6588235 139.932824,26.4 140.482443,26.4 L141.435115,26.4 C141.984733,26.4 142.241221,26.6588235 142.241221,27.3243697 L142.241221,29.3210084 C142.241221,29.5428571 142.277863,29.5798319 142.534351,29.5798319 C142.827481,29.5798319 142.937405,29.5058824 143.010687,29.3210084 C143.047328,29.1731092 143.083969,28.9512605 143.120611,28.6554622 C143.120611,28.4336134 143.267176,28.3596639 143.450382,28.3596639 L143.487023,28.3596639 C143.670229,28.3596639 143.816794,28.507563 143.816794,28.7663866 C143.816794,28.7663866 143.816794,28.7663866 143.816794,28.8033613 C143.816794,29.210084 143.70687,29.6168067 143.596947,29.912605 C143.450382,30.2084034 143.193893,30.3563025 142.49771,30.3563025 C141.728244,30.3563025 141.545038,30.2084034 141.545038,29.6168067 L141.471756,27.5831933 L141.471756,27.5831933 Z" id="Shape"></path>
                                <path d="M2.16183206,26.7697479 C2.2351145,26.4739496 2.19847328,26.2151261 2.19847328,26.2151261 L2.19847328,26.1781513 C1.79541985,24.994958 1.50229008,23.4789916 1.50229008,22.1848739 L1.50229008,22.1848739 C1.50229008,22.1478992 1.46564885,22.1109244 1.42900763,22.1109244 C1.39236641,22.1109244 1.35572519,22.1478992 1.35572519,22.1478992 L1.35572519,22.1478992 C1.0259542,22.9613445 0.696183206,24.0336134 0.512977099,24.810084 C-0.0366412214,27.3983193 0.183206107,30.4302521 1.79541985,32.0941176 L1.79541985,32.0941176 L1.83206107,32.1310924 C1.86870229,32.1310924 1.90534351,32.0941176 1.90534351,32.0201681 L1.90534351,31.9831933 C1.83206107,31.7613445 1.79541985,31.5394958 1.75877863,31.3176471 L1.75877863,31.3176471 C1.5389313,29.8386555 1.7221374,28.3596639 2.16183206,26.7697479 L2.16183206,26.7697479 Z" id="Shape"></path>
                                <path d="M5.09312977,30.6521008 C5.20305344,30.3563025 5.09312977,30.0605042 5.09312977,30.0605042 L5.09312977,30.0235294 C4.61679389,28.7294118 4.21374046,27.102521 4.25038168,25.6605042 L4.25038168,25.6605042 L4.25038168,25.6605042 C4.25038168,25.6235294 4.21374046,25.5865546 4.14045802,25.5865546 C4.10381679,25.5865546 4.06717557,25.6235294 4.06717557,25.6605042 L4.06717557,25.6605042 C3.70076336,26.5848739 3.40763359,27.7680672 3.22442748,28.6184874 C2.5648855,31.2806723 3.00458015,34.7563025 4.83664122,36.5310924 L4.83664122,36.5310924 C4.83664122,36.5680672 4.87328244,36.5680672 4.90992366,36.5680672 C4.94656489,36.5680672 4.98320611,36.5310924 4.98320611,36.4941176 L4.98320611,36.4571429 C4.90992366,36.1983193 4.83664122,35.9394958 4.76335878,35.6806723 L4.76335878,35.6806723 C4.58015267,34.8672269 4.50687023,33.9428571 4.58015267,33.0184874 C4.65343511,32.1680672 4.83664122,31.3915966 5.09312977,30.6521008 L5.09312977,30.6521008 Z" id="Shape"></path>
                                <path d="M13.3007634,41.4117647 C13.2274809,39.7109244 12.0183206,38.4537815 10.6625954,37.2705882 C10.6625954,37.2705882 10.6259542,37.2705882 10.6259542,37.2336134 C10.1862595,36.8638655 9.23358779,36.0504202 9.23358779,36.0504202 C7.0351145,34.0168067 6.88854962,31.6504202 6.92519084,30.6521008 L6.92519084,30.6521008 C6.92519084,30.6151261 6.88854962,30.5781513 6.8519084,30.5781513 C6.81526718,30.5781513 6.81526718,30.5781513 6.77862595,30.6151261 L6.77862595,30.6151261 C6.3389313,31.687395 5.97251908,32.7966387 5.89923664,33.7579832 C5.78931298,35.1260504 6.00916031,36.1613445 6.66870229,37.3815126 C7.47480916,38.6016807 8.75725191,39.6739496 10.4427481,40.487395 C11.2854962,40.8941176 12.2015267,41.2268908 13.1908397,41.4857143 L13.1908397,41.4857143 L13.2274809,41.4857143 C13.3007634,41.4857143 13.3007634,41.4487395 13.3007634,41.4117647 L13.3007634,41.4117647 L13.3007634,41.4117647 Z" id="Shape"></path>
                                <path d="M25.4656489,10.1680672 C21.6916031,10.389916 18.5038168,10.5747899 12.6778626,13.1630252 C11.7618321,13.5697479 6.48549618,16.0840336 3.66412214,21.8151261 C2.85801527,23.4420168 2.41832061,25.4386555 2.34503817,25.7344538 L2.34503817,25.7344538 C2.34503817,25.7714286 2.38167939,25.8084034 2.41832061,25.8084034 C2.45496183,25.8084034 2.49160305,25.7714286 2.49160305,25.7344538 C2.60152672,25.4386555 2.71145038,25.1798319 2.89465649,24.8840336 L2.89465649,24.8840336 C3.00458015,24.6991597 3.11450382,24.5142857 3.2610687,24.2184874 L3.2610687,24.2184874 C3.29770992,24.1815126 3.33435115,24.107563 3.37099237,24.0705882 C4.21374046,22.5915966 5.42290076,21.2605042 6.8519084,20.0773109 C8.13435115,19.0420168 10.1862595,18.0806723 10.9923664,17.7478992 C14.2167939,16.3428571 16.8549618,15.8991597 18.1007634,15.6403361 C19.0167939,15.4184874 19.7496183,15.1966387 20.4091603,14.9747899 C22.5343511,14.1983193 23.8534351,12.7563025 24.8793893,11.4621849 C25.2824427,10.907563 25.6122137,10.5747899 25.6122137,10.5747899 L25.9419847,10.205042 L25.4656489,10.1680672 L25.4656489,10.1680672 Z" id="Shape"></path>
                                <path d="M17.551145,20.0403361 L17.1480916,20.0773109 C16.0122137,20.1882353 14.9129771,20.410084 13.8503817,20.7058824 C13.0442748,20.9277311 12.2381679,21.297479 11.578626,21.6672269 C9.67328244,22.7764706 8.17099237,24.5512605 7.10839695,26.1042017 C6.30229008,27.3243697 5.45954198,29.210084 5.34961832,29.5798319 L5.34961832,29.5798319 L5.34961832,29.6168067 C5.34961832,29.6537815 5.38625954,29.6907563 5.42290076,29.6907563 C5.45954198,29.6907563 5.45954198,29.6907563 5.49618321,29.6537815 L5.49618321,29.6537815 C5.67938931,29.3579832 6.15572519,28.7663866 6.15572519,28.7663866 C7.07175573,27.4352941 8.42748092,26.2521008 10.0030534,25.3647059 C10.4793893,25.1058824 10.919084,24.8470588 11.4320611,24.6252101 L12.4946565,24.1445378 C14.1435115,23.4420168 15.8290076,22.702521 16.8549618,21.0756303 L16.8549618,21.0756303 L17.551145,20.0403361 L17.551145,20.0403361 Z" id="Shape"></path>
                                <path d="M33.8931298,0.295798319 C32.7206107,0.18487395 31.5480916,0.14789916 30.4122137,0.221848739 C28.4335878,0.258823529 26.5282443,0.480672269 24.6961832,0.813445378 C20.519084,1.51596639 16.4885496,2.88403361 13.0076336,4.73277311 C11.4687023,5.54621849 10.0763359,6.47058824 8.79389313,7.46890756 C7.25496183,8.65210084 5.93587786,9.98319328 4.83664122,11.3512605 C4.14045802,12.2386555 3.29770992,13.5327731 2.45496183,15.2336134 C1.20916031,17.7848739 0.696183206,20.594958 0.659541985,20.7798319 L0.659541985,20.7798319 C0.659541985,20.8168067 0.696183206,20.8537815 0.732824427,20.8537815 C0.769465649,20.8537815 0.80610687,20.8168067 0.80610687,20.7798319 L0.80610687,20.7798319 C1.0259542,20.2621849 1.50229008,19.3008403 1.75877863,18.7831933 C2.2351145,17.8957983 2.82137405,17.0084034 3.48091603,16.1579832 C4.54351145,14.789916 5.86259542,13.5327731 7.32824427,12.3495798 C8.5740458,11.3512605 9.96641221,10.4638655 11.4687023,9.65042017 C14.9496183,7.80168067 18.9801527,6.43361345 23.2305344,5.76806723 L23.2305344,5.76806723 L23.2671756,5.76806723 C23.9633588,5.65714286 24.7328244,5.5092437 25.3923664,5.36134454 C28.3969466,4.73277311 31.2549618,3.95630252 33.270229,1.62689076 C33.7832061,1.03529412 34.1496183,0.665546218 34.1496183,0.665546218 L34.4793893,0.332773109 L33.8931298,0.295798319 L33.8931298,0.295798319 Z" id="Shape"></path>
                                <polygon id="Shape" points="26.4549618 34.7932773 28.5801527 40.5983193 30.778626 34.8302521 32.0244275 34.8302521 31.9877863 41.7445378 31.1083969 41.7445378 31.1450382 36.0134454 28.9832061 41.7445378 28.2137405 41.7445378 26.0885496 35.9764706 26.0519084 41.707563 25.1725191 41.707563 25.2091603 34.7932773"></polygon>
                                <path d="M33.4534351,35.7915966 L33.4534351,34.7932773 L34.259542,34.7932773 L34.259542,35.7915966 L33.4534351,35.7915966 L33.4534351,35.7915966 Z M34.259542,36.7159664 L34.2229008,41.707563 L33.4167939,41.707563 L33.4534351,36.7159664 L34.259542,36.7159664 L34.259542,36.7159664 Z" id="Shape"></path>
                                <path d="M36.2748092,36.7159664 L36.2748092,37.492437 L36.3114504,37.492437 C36.6412214,36.9008403 37.1908397,36.605042 37.9236641,36.605042 C38.2534351,36.605042 38.5099237,36.6420168 38.729771,36.7529412 C38.9496183,36.8268908 39.1328244,36.9747899 39.2427481,37.1226891 C39.389313,37.2705882 39.4625954,37.4554622 39.5358779,37.7142857 C39.5725191,37.9361345 39.6091603,38.194958 39.6091603,38.4537815 L39.6091603,41.7445378 L38.8030534,41.7445378 L38.8030534,38.3798319 C38.8030534,38.0840336 38.729771,37.8252101 38.5465649,37.6403361 C38.3633588,37.4554622 38.1435115,37.3815126 37.8137405,37.3815126 C37.5572519,37.3815126 37.3374046,37.4184874 37.1541985,37.492437 C36.9709924,37.5663866 36.8244275,37.6773109 36.7145038,37.8252101 C36.6045802,37.9731092 36.4946565,38.1210084 36.421374,38.3058824 C36.3480916,38.4907563 36.3114504,38.712605 36.3114504,38.9344538 L36.3114504,41.7445378 L35.5053435,41.7445378 L35.5053435,36.7529412 L36.2748092,36.7159664 L36.2748092,36.7159664 Z" id="Shape"></path>
                                <path d="M40.8916031,35.8285714 L40.8916031,34.8302521 L41.6977099,34.8302521 L41.6977099,35.8285714 L40.8916031,35.8285714 L40.8916031,35.8285714 Z M41.6977099,36.7529412 L41.6610687,41.7445378 L40.8549618,41.7445378 L40.8549618,36.7529412 L41.6977099,36.7529412 L41.6977099,36.7529412 Z" id="Shape"></path>
                                <path d="M43.5664122,40.6352941 C43.6396947,40.7462185 43.7496183,40.8571429 43.859542,40.9310924 C43.9694656,41.005042 44.1160305,41.0789916 44.2992366,41.0789916 C44.4458015,41.1159664 44.6290076,41.1529412 44.7755725,41.1529412 C44.8854962,41.1529412 45.0320611,41.1529412 45.178626,41.1159664 C45.3251908,41.0789916 45.4351145,41.0420168 45.5450382,41.005042 C45.6549618,40.9680672 45.7648855,40.8941176 45.8381679,40.7831933 C45.9114504,40.6722689 45.9480916,40.5613445 45.9480916,40.4134454 C45.9480916,40.1915966 45.8748092,40.0436975 45.7282443,39.9327731 C45.5816794,39.8218487 45.3618321,39.7478992 45.1419847,39.6739496 C44.8854962,39.6 44.6290076,39.5260504 44.3725191,39.4890756 C44.0793893,39.4521008 43.8229008,39.3411765 43.6030534,39.2672269 C43.3832061,39.1563025 43.1633588,39.0453782 43.0167939,38.8605042 C42.870229,38.6756303 42.7603053,38.4168067 42.7969466,38.1210084 C42.7969466,37.8621849 42.870229,37.6403361 42.9801527,37.4554622 C43.0900763,37.2705882 43.2366412,37.1226891 43.4198473,37.0117647 C43.6030534,36.9008403 43.7862595,36.8268908 44.0061069,36.7529412 C44.2259542,36.7159664 44.4458015,36.6789916 44.6656489,36.6789916 C44.9221374,36.6789916 45.2152672,36.7159664 45.4351145,36.7529412 C45.6549618,36.789916 45.8748092,36.9008403 46.0580153,37.0117647 C46.2412214,37.1226891 46.3877863,37.307563 46.4977099,37.492437 C46.6076336,37.7142857 46.680916,37.9361345 46.680916,38.2319328 L45.8748092,38.2319328 C45.8381679,38.0840336 45.8015267,37.9361345 45.7648855,37.8252101 C45.6916031,37.7142857 45.6183206,37.6403361 45.5083969,37.5663866 C45.3984733,37.492437 45.2885496,37.4554622 45.1419847,37.4184874 C44.9954198,37.3815126 44.8854962,37.3815126 44.7389313,37.3815126 C44.5923664,37.3815126 44.4824427,37.3815126 44.3725191,37.4184874 C44.2259542,37.4554622 44.1160305,37.4554622 44.0427481,37.5294118 C43.9328244,37.5663866 43.859542,37.6403361 43.7862595,37.7142857 C43.7129771,37.7882353 43.6763359,37.8991597 43.6763359,38.010084 C43.6763359,38.1579832 43.7129771,38.2689076 43.8229008,38.3428571 C43.9328244,38.4537815 44.0427481,38.5277311 44.189313,38.5647059 C44.3358779,38.6386555 44.519084,38.6756303 44.7022901,38.712605 C44.8854962,38.7495798 45.1053435,38.7865546 45.2885496,38.8605042 C45.4717557,38.897479 45.6916031,38.9714286 45.8748092,39.0453782 C46.0580153,39.1193277 46.2412214,39.1932773 46.3877863,39.3042017 C46.5343511,39.4151261 46.6442748,39.5260504 46.7541985,39.7109244 C46.8641221,39.8588235 46.9007634,40.0806723 46.9007634,40.302521 C46.9007634,40.5983193 46.8274809,40.8571429 46.7175573,41.0420168 C46.5709924,41.2268908 46.4244275,41.4117647 46.2412214,41.5226891 C46.021374,41.6336134 45.8015267,41.7445378 45.5450382,41.7815126 C45.2885496,41.8184874 45.0320611,41.8554622 44.8122137,41.8554622 C44.519084,41.8554622 44.2625954,41.8184874 44.0427481,41.7815126 C43.7862595,41.707563 43.5664122,41.6336134 43.3832061,41.4857143 C43.2,41.3378151 43.0534351,41.189916 42.9435115,40.9680672 C42.8335878,40.7462185 42.7603053,40.487395 42.7603053,40.1915966 L43.5664122,40.1915966 C43.4564885,40.3394958 43.4931298,40.487395 43.5664122,40.6352941 L43.5664122,40.6352941 Z" id="Shape"></path>
                                <path d="M49.8687023,36.789916 L49.8687023,37.492437 L48.8793893,37.492437 L48.8793893,40.5983193 C48.8793893,40.7092437 48.8793893,40.7831933 48.9160305,40.8201681 C48.9160305,40.8571429 48.9526718,40.9310924 49.0259542,40.9680672 C49.0625954,41.005042 49.1358779,41.005042 49.2091603,41.0420168 C49.2824427,41.0420168 49.3923664,41.0789916 49.5022901,41.0789916 L49.8687023,41.0789916 L49.8687023,41.7815126 L49.2458015,41.7815126 C49.0259542,41.7815126 48.8427481,41.7815126 48.6961832,41.7445378 C48.5496183,41.707563 48.4396947,41.6705882 48.329771,41.5596639 C48.2198473,41.4857143 48.1832061,41.3747899 48.1099237,41.2268908 C48.0732824,41.0789916 48.0366412,40.8941176 48.0366412,40.6722689 L48.0366412,37.492437 L47.1938931,37.492437 L47.1938931,36.7529412 L48.0366412,36.7529412 L48.0366412,35.2739496 L48.8427481,35.2739496 L48.8427481,36.7529412 L49.8687023,36.789916 L49.8687023,36.789916 Z" id="Shape"></path>
                                <path d="M51.5175573,36.789916 L51.5175573,37.8621849 C51.7374046,37.4554622 51.9572519,37.1596639 52.2503817,36.9747899 C52.5435115,36.789916 52.9099237,36.6789916 53.3496183,36.7159664 L53.3496183,37.6033613 C53.0198473,37.6033613 52.7633588,37.6403361 52.5068702,37.7512605 C52.2870229,37.8252101 52.1038168,37.9731092 51.9572519,38.1579832 C51.810687,38.3428571 51.7007634,38.5277311 51.6641221,38.7865546 C51.5908397,39.0453782 51.5541985,39.3411765 51.5541985,39.6369748 L51.5541985,41.8554622 L50.7480916,41.8554622 L50.7847328,36.8638655 L51.5175573,36.8638655 L51.5175573,36.789916 Z" id="Shape"></path>
                                <path d="M55.5847328,43.0756303 C55.5114504,43.2605042 55.4015267,43.3714286 55.2916031,43.4823529 C55.1816794,43.5932773 55.0717557,43.6672269 54.9251908,43.7042017 C54.778626,43.7411765 54.6320611,43.7781513 54.448855,43.7781513 C54.3389313,43.7781513 54.2656489,43.7781513 54.1557252,43.7411765 C54.0458015,43.7411765 53.9725191,43.7042017 53.8625954,43.6672269 L53.8625954,42.9277311 C53.9358779,42.9647059 54.0091603,42.9647059 54.0824427,43.0016807 C54.1557252,43.0386555 54.2290076,43.0386555 54.3389313,43.0386555 C54.5221374,43.0386555 54.6320611,43.0016807 54.7419847,42.9277311 C54.8519084,42.8537815 54.9251908,42.7428571 54.9984733,42.594958 L55.3282443,41.7445378 L53.3862595,36.7529412 L54.3022901,36.7529412 L55.7312977,40.8571429 L55.7679389,40.8571429 L57.1603053,36.789916 L58.0396947,36.789916 L55.8778626,42.410084 C55.7679389,42.7058824 55.6946565,42.8907563 55.5847328,43.0756303 L55.5847328,43.0756303 Z" id="Shape"></path>
                                <path d="M61.2641221,38.3058824 C61.3740458,38.010084 61.5206107,37.7142857 61.740458,37.492437 C61.9603053,37.2705882 62.1801527,37.0857143 62.5099237,36.9378151 C62.8030534,36.789916 63.1694656,36.7529412 63.5358779,36.7529412 C63.9389313,36.7529412 64.2687023,36.8268908 64.5618321,36.9747899 C64.8549618,37.1226891 65.1114504,37.307563 65.2946565,37.5294118 C65.4778626,37.7882353 65.6610687,38.0470588 65.7343511,38.3798319 C65.8442748,38.6756303 65.880916,39.0453782 65.880916,39.4151261 C65.880916,39.7848739 65.8442748,40.1176471 65.7343511,40.4504202 C65.6244275,40.7462185 65.4778626,41.0420168 65.2580153,41.2638655 C65.0381679,41.4857143 64.8183206,41.6705882 64.5251908,41.8184874 C64.2320611,41.9294118 63.8656489,42.0033613 63.4992366,42.0033613 C63.0961832,42.0033613 62.7664122,41.9294118 62.4732824,41.8184874 C62.1801527,41.6705882 61.9236641,41.4857143 61.740458,41.2638655 C61.5206107,41.005042 61.3740458,40.7462185 61.2641221,40.4504202 C61.1541985,40.1176471 61.1175573,39.7848739 61.1175573,39.4151261 C61.1175573,38.9344538 61.1908397,38.6016807 61.2641221,38.3058824 L61.2641221,38.3058824 Z M62.1068702,40.1176471 C62.1801527,40.3394958 62.2900763,40.5613445 62.4366412,40.7092437 C62.5832061,40.8571429 62.729771,41.005042 62.9129771,41.0789916 C63.0961832,41.1529412 63.3160305,41.189916 63.4992366,41.2268908 C63.719084,41.2268908 63.9022901,41.189916 64.0854962,41.0789916 C64.2687023,41.005042 64.4519084,40.8571429 64.5618321,40.7092437 C64.7083969,40.5613445 64.8183206,40.3394958 64.8916031,40.1176471 C64.9648855,39.8957983 65.0015267,39.6 65.0015267,39.3042017 C65.0015267,39.0084034 64.9648855,38.7495798 64.8916031,38.4907563 C64.8183206,38.2319328 64.7083969,38.0470588 64.5618321,37.8991597 C64.4152672,37.7512605 64.2687023,37.6033613 64.0854962,37.5294118 C63.9022901,37.4554622 63.6824427,37.3815126 63.4992366,37.3815126 C63.2793893,37.3815126 63.0961832,37.4184874 62.9129771,37.492437 C62.729771,37.5663866 62.5465649,37.7142857 62.4366412,37.8621849 C62.2900763,38.010084 62.1801527,38.2319328 62.1068702,38.4537815 C62.0335878,38.6756303 61.9969466,38.9344538 61.9969466,39.2672269 C61.9969466,39.6369748 62.0335878,39.8957983 62.1068702,40.1176471 L62.1068702,40.1176471 Z" id="Shape"></path>
                                <path d="M66.3938931,37.5663866 L66.3938931,36.8268908 L67.2366412,36.8268908 L67.2366412,36.087395 C67.2366412,35.6806723 67.3465649,35.3848739 67.6030534,35.1630252 C67.8229008,34.9411765 68.189313,34.8672269 68.6290076,34.8672269 C68.7022901,34.8672269 68.8122137,34.8672269 68.8854962,34.9042017 C68.9954198,34.9042017 69.0687023,34.9411765 69.1419847,34.9781513 L69.1419847,35.6806723 C69.0687023,35.6436975 68.9954198,35.6436975 68.9221374,35.6067227 L68.7022901,35.6067227 C68.519084,35.6067227 68.3358779,35.6436975 68.2259542,35.7176471 C68.1160305,35.7915966 68.0793893,35.9394958 68.0793893,36.1613445 L68.0793893,36.8638655 L69.0320611,36.8638655 L69.0320611,37.6033613 L68.0793893,37.6033613 L68.0427481,41.8554622 L67.2366412,41.8554622 L67.2366412,37.6033613 L66.3938931,37.5663866 L66.3938931,37.5663866 Z" id="Shape"></path>
                                <polygon id="Shape" points="77.2396947 34.9781513 77.2396947 35.7546218 73.4290076 35.7546218 73.4290076 37.9361345 76.9832061 37.9731092 76.9832061 38.7495798 73.4290076 38.712605 73.4290076 41.1159664 77.2763359 41.1159664 77.2763359 41.892437 72.5129771 41.892437 72.5496183 34.9781513"></polygon>
                                <path d="M81.1969466,37.7512605 C80.9770992,37.5663866 80.7206107,37.492437 80.3908397,37.492437 C80.0977099,37.492437 79.8412214,37.5294118 79.6580153,37.6403361 C79.4748092,37.7512605 79.2916031,37.8991597 79.1816794,38.0840336 C79.0717557,38.2689076 78.9618321,38.4537815 78.9251908,38.712605 C78.8885496,38.9344538 78.8519084,39.1932773 78.8519084,39.4521008 C78.8519084,39.6739496 78.8885496,39.8957983 78.9251908,40.1176471 C78.9618321,40.3394958 79.0717557,40.5243697 79.1816794,40.7092437 C79.2916031,40.8941176 79.4381679,41.005042 79.621374,41.1159664 C79.8045802,41.2268908 80.0244275,41.2638655 80.280916,41.2638655 C80.6839695,41.2638655 81.0137405,41.1529412 81.2335878,40.9310924 C81.4534351,40.7092437 81.6,40.4134454 81.6732824,40.0436975 L82.5160305,40.0436975 C82.4061069,40.6352941 82.1862595,41.1159664 81.8198473,41.4487395 C81.4534351,41.7815126 80.940458,41.9294118 80.3175573,41.9294118 C79.951145,41.9294118 79.621374,41.8554622 79.3282443,41.7445378 C79.0351145,41.6336134 78.8152672,41.4487395 78.5954198,41.2268908 C78.4122137,41.005042 78.2656489,40.7092437 78.1557252,40.4134454 C78.0458015,40.0806723 78.0091603,39.7478992 78.0091603,39.3781513 C78.0091603,39.0084034 78.0458015,38.6386555 78.1557252,38.3428571 C78.2656489,38.010084 78.4122137,37.7512605 78.5954198,37.492437 C78.778626,37.2336134 79.0351145,37.0487395 79.3282443,36.9378151 C79.621374,36.789916 79.9877863,36.7159664 80.3541985,36.7159664 C80.6473282,36.7159664 80.9038168,36.7529412 81.1603053,36.8268908 C81.4167939,36.9008403 81.6,37.0117647 81.8198473,37.1596639 C82.0030534,37.307563 82.1496183,37.492437 82.2961832,37.7142857 C82.4061069,37.9361345 82.4793893,38.194958 82.5160305,38.4907563 L81.6732824,38.4907563 C81.5267176,38.194958 81.4167939,37.9361345 81.1969466,37.7512605 L81.1969466,37.7512605 Z" id="Shape"></path>
                                <path d="M83.248855,38.3798319 C83.3587786,38.0470588 83.5053435,37.7882353 83.7251908,37.5663866 C83.9083969,37.3445378 84.1648855,37.1596639 84.4946565,37.0117647 C84.7877863,36.8638655 85.1541985,36.789916 85.5206107,36.8268908 C85.9236641,36.8268908 86.2534351,36.9008403 86.5465649,37.0487395 C86.8396947,37.1966387 87.0961832,37.3815126 87.2793893,37.6033613 C87.4992366,37.8252101 87.6458015,38.1210084 87.7557252,38.4168067 C87.8656489,38.7495798 87.9022901,39.0823529 87.9022901,39.4521008 C87.9022901,39.8218487 87.8656489,40.1546218 87.7557252,40.487395 C87.6458015,40.8201681 87.4992366,41.0789916 87.3160305,41.3008403 C87.0961832,41.5226891 86.8763359,41.707563 86.5465649,41.8554622 C86.2534351,41.9663866 85.8870229,42.0403361 85.5206107,42.0403361 C85.1175573,42.0403361 84.7877863,41.9663866 84.4946565,41.8554622 C84.2015267,41.707563 83.9450382,41.5226891 83.7251908,41.3008403 C83.5053435,41.0789916 83.3587786,40.7831933 83.2854962,40.487395 C83.1755725,40.1546218 83.1389313,39.8218487 83.1389313,39.4521008 C83.1022901,39.0453782 83.1755725,38.6756303 83.248855,38.3798319 L83.248855,38.3798319 Z M84.0916031,40.2285714 C84.1648855,40.4504202 84.2748092,40.6722689 84.421374,40.8201681 C84.5679389,40.9680672 84.7145038,41.0789916 84.8977099,41.189916 C85.080916,41.2638655 85.3007634,41.3008403 85.4839695,41.3008403 C85.7038168,41.3008403 85.8870229,41.2638655 86.070229,41.189916 C86.2534351,41.1159664 86.4366412,40.9680672 86.5465649,40.8201681 C86.6931298,40.6722689 86.8030534,40.4504202 86.8763359,40.2285714 C86.9496183,40.0067227 86.9862595,39.7109244 86.9862595,39.4151261 C86.9862595,39.1193277 86.9496183,38.8235294 86.8763359,38.6016807 C86.8030534,38.3428571 86.6931298,38.1579832 86.5465649,38.010084 C86.4,37.8621849 86.2534351,37.7142857 86.070229,37.6403361 C85.8870229,37.5663866 85.6671756,37.492437 85.4839695,37.492437 C85.2641221,37.492437 85.080916,37.5294118 84.8977099,37.6403361 C84.7145038,37.7142857 84.5312977,37.8621849 84.3847328,38.010084 C84.2381679,38.1579832 84.1282443,38.3798319 84.0549618,38.6016807 C83.9816794,38.8235294 83.9450382,39.1193277 83.9450382,39.4151261 C83.9816794,39.7109244 84.0183206,39.9697479 84.0916031,40.2285714 L84.0916031,40.2285714 Z" id="Shape"></path>
                                <path d="M89.6244275,36.9378151 L89.6244275,37.7142857 L89.6610687,37.7142857 C89.9908397,37.1226891 90.540458,36.8268908 91.2732824,36.8268908 C91.6030534,36.8268908 91.859542,36.8638655 92.0793893,36.9747899 C92.2992366,37.0857143 92.4824427,37.1966387 92.5923664,37.3445378 C92.7389313,37.492437 92.8122137,37.7142857 92.8854962,37.9361345 C92.9221374,38.1579832 92.9587786,38.4168067 92.9587786,38.6756303 L92.9587786,41.9663866 L92.1526718,41.9663866 L92.1526718,38.6016807 C92.1526718,38.3058824 92.0793893,38.0470588 91.8961832,37.8621849 C91.7129771,37.6773109 91.4564885,37.6033613 91.1633588,37.6033613 C90.9068702,37.6033613 90.6870229,37.6403361 90.5038168,37.7142857 C90.3206107,37.7882353 90.1740458,37.8991597 90.0641221,38.0470588 C89.9541985,38.194958 89.8442748,38.3428571 89.7709924,38.5277311 C89.6977099,38.712605 89.6610687,38.9344538 89.6610687,39.1563025 L89.6610687,41.9663866 L88.8549618,41.9663866 L88.8916031,36.9747899 L89.6244275,36.9378151 L89.6244275,36.9378151 Z" id="Shape"></path>
                                <path d="M94.0946565,38.4168067 C94.2045802,38.1210084 94.351145,37.8252101 94.5343511,37.6033613 C94.7541985,37.3815126 95.010687,37.1966387 95.3038168,37.0487395 C95.5969466,36.9008403 95.9633588,36.8638655 96.329771,36.8638655 C96.7328244,36.8638655 97.0625954,36.9378151 97.3557252,37.0857143 C97.648855,37.2336134 97.9053435,37.4184874 98.0885496,37.6403361 C98.3083969,37.8621849 98.4549618,38.1579832 98.5648855,38.4537815 C98.6748092,38.7865546 98.7114504,39.1193277 98.7114504,39.4890756 C98.7114504,39.8588235 98.6381679,40.1915966 98.5648855,40.5243697 C98.4549618,40.8201681 98.3083969,41.1159664 98.0885496,41.3378151 C97.8687023,41.5596639 97.648855,41.7445378 97.319084,41.892437 C97.0259542,42.0403361 96.659542,42.0773109 96.2931298,42.0773109 C95.8900763,42.0773109 95.5603053,42.0033613 95.2671756,41.8554622 C94.9740458,41.707563 94.7175573,41.5226891 94.4977099,41.3008403 C94.2778626,41.0789916 94.1312977,40.7831933 94.021374,40.487395 C93.9114504,40.1546218 93.8748092,39.8218487 93.8748092,39.4521008 C93.9114504,39.0823529 93.9847328,38.7495798 94.0946565,38.4168067 L94.0946565,38.4168067 Z M94.9007634,40.2655462 C94.9740458,40.487395 95.0839695,40.7092437 95.2305344,40.8571429 C95.3770992,41.005042 95.5236641,41.1529412 95.7068702,41.2268908 C95.8900763,41.3008403 96.1099237,41.3378151 96.2931298,41.3747899 C96.5129771,41.3747899 96.6961832,41.3378151 96.8793893,41.2638655 C97.0625954,41.189916 97.2458015,41.0420168 97.3923664,40.8941176 C97.5389313,40.7462185 97.648855,40.5243697 97.7221374,40.302521 C97.7954198,40.0806723 97.8320611,39.7848739 97.8320611,39.4890756 C97.8320611,39.1932773 97.7954198,38.897479 97.7221374,38.6756303 C97.648855,38.4537815 97.5389313,38.2319328 97.3923664,38.0840336 C97.2458015,37.9361345 97.0992366,37.7882353 96.9160305,37.7142857 C96.7328244,37.6403361 96.5129771,37.6033613 96.329771,37.6033613 C96.1099237,37.6033613 95.9267176,37.6403361 95.7435115,37.7142857 C95.5603053,37.7882353 95.3770992,37.9361345 95.2671756,38.0840336 C95.1206107,38.2319328 95.010687,38.4537815 94.9374046,38.6756303 C94.8641221,38.897479 94.8274809,39.1932773 94.8274809,39.4890756 C94.7908397,39.7478992 94.8274809,40.0436975 94.9007634,40.2655462 L94.9007634,40.2655462 Z" id="Shape"></path>
                                <path d="M100.470229,36.9747899 L100.470229,37.7142857 C100.836641,37.1596639 101.38626,36.8638655 102.082443,36.8638655 C102.375573,36.8638655 102.668702,36.9378151 102.925191,37.0487395 C103.181679,37.1966387 103.364885,37.3815126 103.438168,37.7142857 C103.621374,37.4554622 103.841221,37.2336134 104.09771,37.0857143 C104.39084,36.9378151 104.683969,36.8638655 105.01374,36.8638655 C105.270229,36.8638655 105.490076,36.9008403 105.673282,36.9378151 C105.89313,37.0117647 106.039695,37.0857143 106.18626,37.1966387 C106.332824,37.307563 106.442748,37.4554622 106.516031,37.6403361 C106.589313,37.8252101 106.625954,38.0470588 106.625954,38.3058824 L106.625954,41.9663866 L105.819847,41.9663866 L105.819847,38.712605 C105.819847,38.5647059 105.819847,38.4168067 105.783206,38.2689076 C105.746565,38.1210084 105.709924,38.010084 105.636641,37.8991597 C105.563359,37.7882353 105.453435,37.7142857 105.343511,37.6773109 C105.233588,37.6033613 105.050382,37.6033613 104.867176,37.6033613 C104.464122,37.6033613 104.134351,37.7142857 103.914504,37.9731092 C103.694656,38.194958 103.584733,38.4907563 103.584733,38.897479 L103.584733,42.0033613 L102.778626,42.0033613 L102.778626,38.712605 C102.778626,38.5647059 102.778626,38.4168067 102.741985,38.2689076 C102.705344,38.1210084 102.668702,38.010084 102.59542,37.8991597 C102.522137,37.7882353 102.412214,37.7142857 102.30229,37.6773109 C102.192366,37.6033613 102.045802,37.6033613 101.862595,37.6033613 C101.642748,37.6033613 101.422901,37.6403361 101.239695,37.7512605 C101.056489,37.8621849 100.946565,37.9731092 100.836641,38.0840336 C100.726718,38.2319328 100.653435,38.3428571 100.616794,38.4907563 C100.580153,38.6386555 100.543511,38.7495798 100.543511,38.8605042 L100.543511,41.9663866 L99.7374046,41.9663866 L99.7374046,36.9747899 L100.470229,36.9747899 L100.470229,36.9747899 Z" id="Shape"></path>
                                <path d="M107.908397,36.1243697 L107.908397,35.1260504 L108.714504,35.1260504 L108.714504,36.1243697 L107.908397,36.1243697 L107.908397,36.1243697 Z M108.714504,37.0117647 L108.677863,42.0033613 L107.871756,42.0033613 L107.871756,37.0117647 L108.714504,37.0117647 L108.714504,37.0117647 Z" id="Shape"></path>
                                <path d="M112.964885,37.8991597 C112.745038,37.7142857 112.48855,37.6403361 112.158779,37.6403361 C111.865649,37.6403361 111.60916,37.7142857 111.425954,37.8252101 C111.242748,37.9361345 111.059542,38.0840336 110.949618,38.2689076 C110.839695,38.4537815 110.729771,38.6386555 110.69313,38.897479 C110.656489,39.1193277 110.619847,39.3781513 110.619847,39.6369748 C110.619847,39.8588235 110.656489,40.0806723 110.69313,40.302521 C110.729771,40.5243697 110.839695,40.7092437 110.949618,40.8941176 C111.059542,41.0789916 111.206107,41.189916 111.389313,41.3008403 C111.572519,41.4117647 111.792366,41.4487395 112.048855,41.4487395 C112.451908,41.4487395 112.781679,41.3378151 113.001527,41.1159664 C113.221374,40.8941176 113.367939,40.5983193 113.40458,40.2285714 L114.247328,40.2285714 C114.137405,40.8571429 113.917557,41.3378151 113.551145,41.6705882 C113.184733,42.0033613 112.671756,42.1512605 112.048855,42.1512605 C111.682443,42.1512605 111.352672,42.0773109 111.059542,41.9663866 C110.766412,41.8554622 110.509924,41.6705882 110.326718,41.4487395 C110.143511,41.2268908 109.996947,40.9680672 109.887023,40.6352941 C109.777099,40.302521 109.740458,39.9697479 109.740458,39.6 C109.740458,39.2302521 109.777099,38.897479 109.887023,38.5647059 C109.996947,38.2319328 110.143511,37.9731092 110.326718,37.7142857 C110.509924,37.492437 110.766412,37.2705882 111.059542,37.1596639 C111.352672,37.0117647 111.682443,36.9378151 112.085496,36.9378151 C112.378626,36.9378151 112.635115,36.9747899 112.854962,37.0487395 C113.11145,37.1226891 113.331298,37.2336134 113.514504,37.3445378 C113.69771,37.492437 113.844275,37.6773109 113.99084,37.8991597 C114.100763,38.1210084 114.174046,38.3798319 114.210687,38.6756303 L113.367939,38.6756303 C113.294656,38.3058824 113.148092,38.0840336 112.964885,37.8991597 L112.964885,37.8991597 Z" id="Shape"></path>
                                <path d="M120.806107,35.1630252 L123.444275,42.0773109 L122.418321,42.0773109 L121.685496,40.0067227 L118.79084,40.0067227 L118.021374,42.0773109 L117.105344,42.0773109 L119.780153,35.2 L120.806107,35.2 L120.806107,35.1630252 Z M121.429008,39.1932773 L120.29313,35.9764706 L119.083969,39.1932773 L121.429008,39.1932773 L121.429008,39.1932773 Z" id="Shape"></path>
                                <path d="M123.480916,37.7882353 L123.480916,37.0487395 L124.323664,37.0487395 L124.323664,36.3092437 C124.323664,35.902521 124.433588,35.6067227 124.690076,35.3848739 C124.909924,35.1630252 125.276336,35.0890756 125.716031,35.0890756 C125.789313,35.0890756 125.899237,35.0890756 125.972519,35.1260504 C126.082443,35.1260504 126.155725,35.1630252 126.229008,35.2 L126.229008,35.902521 C126.155725,35.8655462 126.082443,35.8655462 126.00916,35.8655462 L125.789313,35.8655462 C125.606107,35.8655462 125.422901,35.902521 125.312977,35.9764706 C125.203053,36.0504202 125.166412,36.1983193 125.166412,36.4201681 L125.166412,37.1226891 L126.119084,37.1226891 L126.119084,37.8252101 L125.166412,37.8252101 L125.129771,42.1142857 L124.323664,42.1142857 L124.323664,37.8252101 L123.480916,37.8252101 L123.480916,37.7882353 Z" id="Shape"></path>
                                <path d="M126.338931,37.7882353 L126.338931,37.0857143 L127.181679,37.0857143 L127.181679,36.3462185 C127.181679,35.9394958 127.291603,35.6436975 127.548092,35.4218487 C127.767939,35.2 128.134351,35.1260504 128.574046,35.1260504 C128.647328,35.1260504 128.720611,35.1260504 128.830534,35.1630252 C128.940458,35.1630252 129.01374,35.2 129.087023,35.2369748 L129.087023,35.9394958 C129.01374,35.902521 128.940458,35.902521 128.867176,35.902521 C128.793893,35.902521 128.720611,35.8655462 128.647328,35.8655462 C128.464122,35.8655462 128.280916,35.902521 128.170992,35.9764706 C128.061069,36.0504202 128.024427,36.1983193 128.024427,36.4201681 L128.024427,37.1226891 L128.977099,37.1226891 L128.977099,37.8621849 L128.024427,37.8621849 L127.987786,42.1512605 L127.145038,42.1512605 L127.181679,37.8621849 L126.338931,37.7882353 L126.338931,37.7882353 Z" id="Shape"></path>
                                <path d="M133.447328,42.2252101 C133.227481,42.2252101 133.080916,42.1512605 132.934351,42.0403361 C132.824427,41.9294118 132.751145,41.707563 132.751145,41.4487395 C132.531298,41.707563 132.274809,41.892437 131.981679,42.0403361 C131.68855,42.1512605 131.358779,42.2252101 131.029008,42.2252101 C130.80916,42.2252101 130.589313,42.1882353 130.406107,42.1512605 C130.18626,42.1142857 130.039695,42.0403361 129.89313,41.892437 C129.746565,41.7815126 129.636641,41.6336134 129.563359,41.4487395 C129.490076,41.2638655 129.453435,41.0420168 129.453435,40.8201681 C129.453435,40.5243697 129.490076,40.302521 129.6,40.1176471 C129.709924,39.9327731 129.819847,39.7848739 129.966412,39.6739496 C130.112977,39.5630252 130.296183,39.4890756 130.516031,39.4151261 C130.735878,39.3411765 130.919084,39.3042017 131.138931,39.2672269 C131.358779,39.2302521 131.578626,39.1932773 131.761832,39.1563025 C131.981679,39.1563025 132.128244,39.0823529 132.31145,39.0453782 C132.458015,39.0084034 132.567939,38.9344538 132.677863,38.8605042 C132.787786,38.7865546 132.824427,38.6756303 132.824427,38.5277311 C132.824427,38.3428571 132.787786,38.194958 132.714504,38.0840336 C132.641221,37.9731092 132.567939,37.8991597 132.458015,37.8252101 C132.348092,37.7512605 132.238168,37.7142857 132.091603,37.7142857 C131.945038,37.6773109 131.835115,37.6773109 131.725191,37.6773109 C131.358779,37.6773109 131.10229,37.7512605 130.845802,37.8621849 C130.625954,38.010084 130.479389,38.2319328 130.479389,38.6016807 L129.673282,38.6016807 C129.673282,38.3058824 129.746565,38.0470588 129.856489,37.8252101 C129.966412,37.6033613 130.112977,37.4554622 130.332824,37.307563 C130.516031,37.1596639 130.735878,37.0857143 130.992366,37.0117647 C131.248855,36.9747899 131.505344,36.9378151 131.761832,36.9378151 C131.981679,36.9378151 132.201527,36.9747899 132.421374,36.9747899 C132.641221,37.0117647 132.824427,37.0857143 133.007634,37.1596639 C133.19084,37.2705882 133.337405,37.4184874 133.447328,37.5663866 C133.557252,37.7512605 133.593893,37.9731092 133.593893,38.2689076 L133.593893,40.8201681 C133.593893,41.005042 133.593893,41.1529412 133.630534,41.2268908 C133.667176,41.3378151 133.740458,41.3747899 133.850382,41.3747899 C133.923664,41.3747899 133.996947,41.3378151 134.10687,41.3378151 L134.10687,41.9663866 C133.887023,42.1512605 133.703817,42.2252101 133.447328,42.2252101 L133.447328,42.2252101 Z M132.31145,39.6739496 C132.128244,39.7109244 131.981679,39.7478992 131.798473,39.7478992 C131.615267,39.7848739 131.432061,39.7848739 131.248855,39.8218487 C131.065649,39.8588235 130.882443,39.8957983 130.735878,39.9697479 C130.589313,40.0436975 130.479389,40.1176471 130.369466,40.2285714 C130.259542,40.3394958 130.222901,40.5243697 130.222901,40.7092437 C130.222901,40.8571429 130.259542,40.9680672 130.296183,41.0420168 C130.369466,41.1529412 130.406107,41.2268908 130.516031,41.2638655 C130.589313,41.3378151 130.699237,41.3747899 130.80916,41.3747899 C130.919084,41.4117647 131.029008,41.4117647 131.175573,41.4117647 C131.432061,41.4117647 131.68855,41.3747899 131.871756,41.3008403 C132.054962,41.2268908 132.201527,41.1529412 132.348092,41.005042 C132.458015,40.8941176 132.567939,40.7831933 132.60458,40.6352941 C132.641221,40.487395 132.677863,40.3764706 132.677863,40.2655462 L132.677863,39.4151261 C132.60458,39.6 132.494656,39.6369748 132.31145,39.6739496 L132.31145,39.6739496 Z" id="Shape"></path>
                                <path d="M134.839695,36.1983193 L134.839695,35.2 L135.645802,35.2 L135.645802,36.1983193 L134.839695,36.1983193 L134.839695,36.1983193 Z M135.682443,37.1226891 L135.645802,42.1142857 L134.839695,42.1142857 L134.876336,37.1226891 L135.682443,37.1226891 L135.682443,37.1226891 Z" id="Shape"></path>
                                <path d="M137.661069,37.1226891 L137.661069,38.194958 L137.69771,38.194958 C137.880916,37.7882353 138.137405,37.492437 138.430534,37.307563 C138.723664,37.1226891 139.090076,37.0117647 139.529771,37.0487395 L139.529771,37.9361345 C139.2,37.9361345 138.943511,37.9731092 138.687023,38.0470588 C138.467176,38.1579832 138.283969,38.2689076 138.137405,38.4537815 C137.99084,38.6386555 137.880916,38.8235294 137.844275,39.0823529 C137.770992,39.3411765 137.734351,39.6 137.734351,39.9327731 L137.734351,42.1512605 L136.928244,42.1512605 L136.928244,37.1596639 L137.661069,37.1596639 L137.661069,37.1226891 Z" id="Shape"></path>
                                <path d="M140.738931,41.005042 C140.812214,41.1529412 140.922137,41.2268908 141.032061,41.3008403 C141.141985,41.3747899 141.28855,41.4487395 141.435115,41.4487395 C141.581679,41.4857143 141.764885,41.5226891 141.91145,41.5226891 C142.058015,41.5226891 142.167939,41.5226891 142.314504,41.4857143 C142.461069,41.4487395 142.570992,41.4487395 142.680916,41.3747899 C142.79084,41.3378151 142.900763,41.2268908 142.974046,41.1529412 C143.047328,41.0420168 143.083969,40.9310924 143.083969,40.7831933 C143.083969,40.5613445 143.010687,40.4134454 142.864122,40.302521 C142.680916,40.1915966 142.49771,40.1176471 142.277863,40.0436975 C142.058015,39.9697479 141.764885,39.8957983 141.508397,39.8588235 C141.215267,39.8218487 140.958779,39.7109244 140.738931,39.6369748 C140.519084,39.5260504 140.299237,39.3781513 140.152672,39.1932773 C140.006107,39.0084034 139.896183,38.7495798 139.932824,38.4537815 C139.932824,38.194958 140.006107,37.9731092 140.116031,37.8252101 C140.225954,37.6403361 140.372519,37.492437 140.555725,37.3815126 C140.738931,37.2705882 140.922137,37.1966387 141.141985,37.1226891 C141.361832,37.0857143 141.581679,37.0487395 141.801527,37.0487395 C142.094656,37.0487395 142.351145,37.0857143 142.570992,37.1226891 C142.79084,37.1596639 143.010687,37.2705882 143.193893,37.3815126 C143.377099,37.492437 143.523664,37.6773109 143.633588,37.8621849 C143.743511,38.0840336 143.816794,38.3058824 143.816794,38.6016807 L143.010687,38.6016807 C143.010687,38.4537815 142.974046,38.3058824 142.900763,38.194958 C142.827481,38.0840336 142.754198,38.010084 142.644275,37.9361345 C142.534351,37.8621849 142.424427,37.8252101 142.277863,37.7882353 C142.131298,37.7512605 142.021374,37.7512605 141.874809,37.7512605 C141.764885,37.7512605 141.618321,37.7512605 141.508397,37.7882353 C141.361832,37.7882353 141.251908,37.8252101 141.141985,37.8991597 C141.032061,37.9361345 140.958779,38.010084 140.885496,38.0840336 C140.812214,38.1579832 140.775573,38.2689076 140.775573,38.3798319 C140.775573,38.5277311 140.812214,38.6386555 140.922137,38.7495798 C141.032061,38.8605042 141.141985,38.9344538 141.28855,38.9714286 C141.435115,39.0453782 141.618321,39.0823529 141.801527,39.1193277 C141.984733,39.1563025 142.167939,39.1932773 142.387786,39.2302521 C142.607634,39.2672269 142.79084,39.3411765 142.974046,39.4151261 C143.157252,39.4890756 143.340458,39.5630252 143.487023,39.6739496 C143.633588,39.7848739 143.743511,39.9327731 143.853435,40.0806723 C143.963359,40.2285714 144,40.4504202 144,40.6722689 C144,40.9680672 143.926718,41.2268908 143.816794,41.4117647 C143.70687,41.5966387 143.523664,41.7815126 143.340458,41.892437 C143.120611,42.0033613 142.900763,42.1142857 142.644275,42.1512605 C142.387786,42.1882353 142.131298,42.2252101 141.874809,42.2252101 C141.618321,42.2252101 141.325191,42.1882353 141.105344,42.1142857 C140.848855,42.0773109 140.629008,41.9663866 140.445802,41.8184874 C140.262595,41.6705882 140.116031,41.5226891 139.969466,41.3008403 C139.859542,41.0789916 139.78626,40.8201681 139.78626,40.5243697 L140.592366,40.5243697 C140.592366,40.7462185 140.665649,40.8941176 140.738931,41.005042 L140.738931,41.005042 Z" id="Shape"></path>
                                <path d="M51.1145038,24.292437 C51.5175573,22.1478992 52.7267176,20.7058824 54.5221374,20.3361345 C54.3389313,21.3344538 52.5068702,31.4655462 52.3969466,32.0571429 L49.7221374,32.0571429 C49.8687023,31.2067227 51.1145038,24.292437 51.1145038,24.292437 L51.1145038,24.292437 Z" id="Shape"></path>
                                <path d="M57.6732824,20.2621849 L65.4778626,20.2621849 C65.4045802,20.7798319 65.2580153,21.6302521 65.1847328,22.0369748 L61.7770992,22.0369748 C61.7770992,22.0369748 60.1282443,31.4285714 60.0183206,32.0571429 L57.3435115,32.0571429 C57.5267176,31.2436975 58.6625954,25.4386555 58.6625954,25.4386555 C58.919084,24.1445378 59.3587786,23.2941176 60.0183206,22.7764706 L60.9709924,22.0739496 L55.6946565,22.0739496 C55.8412214,21.4453782 56.2076336,20.2991597 57.6732824,20.2621849 L57.6732824,20.2621849 Z" id="Shape"></path>
                                <path d="M48.659542,20.6689076 C48.4763359,20.410084 48.1832061,20.2991597 47.7435115,20.2991597 L43.0167939,20.2621849 C40.7450382,20.2621849 39.1328244,21.7042017 38.6931298,24.2554622 C38.6931298,24.2554622 37.7770992,29.0991597 37.7770992,29.1361345 C37.6671756,29.5798319 37.5206107,30.8 37.9969466,31.4285714 C38.2167939,31.687395 38.5465649,31.8352941 38.9862595,31.8352941 L43.4931298,31.8352941 C45.7648855,31.8352941 47.3770992,30.3932773 47.8534351,27.8420168 C47.8534351,27.8420168 48.8427481,22.3327731 48.8793893,22.2957983 C48.9160305,22.0369748 49.0259542,21.1495798 48.659542,20.6689076 L48.659542,20.6689076 Z M45.3618321,26.9915966 C44.8854962,29.4319328 43.5664122,30.8739496 41.8442748,30.8739496 L40.1221374,30.8739496 L41.1480916,25.1798319 C41.5877863,22.7394958 42.9068702,21.297479 44.6656489,21.297479 L46.3877863,21.297479 L45.3618321,26.9915966 L45.3618321,26.9915966 Z" id="Shape"></path>
                                <path d="M33.9664122,20.2252101 L27.151145,20.1882353 C27.151145,20.1882353 25.2458015,31.0218487 25.0992366,31.7983193 C25.8687023,31.7983193 31.621374,31.8352941 31.621374,31.8352941 C33.8931298,31.8352941 35.5053435,30.3932773 35.9450382,27.8420168 C35.9450382,27.8420168 36.7877863,23.3680672 36.8610687,23.1092437 C37.4473282,20.2991597 34.6992366,20.2252101 33.9664122,20.2252101 L33.9664122,20.2252101 Z M34.2961832,22.8134454 L33.5633588,26.9546218 C33.0870229,29.394958 31.8045802,30.8369748 30.0458015,30.8369748 L27.9572519,30.8369748 L29.6427481,21.297479 L32.7572519,21.297479 C32.7206107,21.2605042 34.5526718,21.1865546 34.2961832,22.8134454 L34.2961832,22.8134454 Z" id="Shape"></path>
                            </g>
                        </g>
                    </g>
                </g>
            </g>
        </g>
    </g>
</svg>