<?xml version="1.0" encoding="UTF-8" standalone="no"?>
<svg width="13px" height="20px" viewBox="0 0 13 20" version="1.1" xmlns="http://www.w3.org/2000/svg" xmlns:xlink="http://www.w3.org/1999/xlink">
    <!-- Generator: Sketch 39.1 (31720) - http://www.bohemiancoding.com/sketch -->
    <title>ic chevron left 24 px</title>
    <desc>Created with Sketch.</desc>
    <defs></defs>
    <g id="Page-1" stroke="none" stroke-width="1" fill="none" fill-rule="evenodd">
        <g id="首頁-08_30" transform="translate(-20.000000, -1425.000000)" fill="#9B9B9B">
            <g id="觀光景點" transform="translate(0.000000, 1210.000000)">
                <g id="ic-chevron-left-24-px" transform="translate(20.000000, 215.000000)">
                    <polygon id="Shape" points="12.35 2.35 10 0 0 10 10 20 12.35 17.65 4.71666667 10"></polygon>
                </g>
            </g>
        </g>
    </g>
</svg>