<?xml version="1.0" encoding="UTF-8" standalone="no"?>
<svg width="26px" height="38px" viewBox="0 0 26 38" version="1.1" xmlns="http://www.w3.org/2000/svg" xmlns:xlink="http://www.w3.org/1999/xlink">
    <defs></defs>
    <g id="Page-1" stroke="none" stroke-width="1" fill="none" fill-rule="evenodd">
        <g id="pin-actived" transform="translate(3.000000, 3.000000)">
            <path d="M10.0000648,0 C4.48601401,0 1.77635684e-15,4.45156478 1.77635684e-15,9.9232075 C1.77635684e-15,12.1270002 1.41816721,15.7199378 4.33530094,20.9073861 C6.39876112,24.5763874 8.42826874,27.6356568 8.51353891,27.7640586 L10.0000648,30 L11.4865259,27.7641229 C11.5718608,27.6356568 13.6014981,24.5764517 15.6646991,20.9074504 C18.5819624,15.7199378 20,12.1270645 20,9.92327179 C20.0000648,4.45156478 15.5140508,0 10.0000648,0 L10.0000648,0 Z" id="Shape" stroke="#FFFFFF" stroke-width="2.5" fill-opacity="0.8" fill="#E23D2A"></path>
            <circle id="Oval-1" fill="#FFFFFF" cx="10" cy="9.44444444" r="3.33333333"></circle>
        </g>
    </g>
</svg>