<?xml version="1.0" encoding="UTF-8" standalone="no"?>
<svg width="182px" height="21px" viewBox="0 0 182 21" version="1.1" xmlns="http://www.w3.org/2000/svg" xmlns:xlink="http://www.w3.org/1999/xlink">
    <!-- Generator: Sketch 39.1 (31720) - http://www.bohemiancoding.com/sketch -->
    <title>tripadvisor</title>
    <desc>Created with Sketch.</desc>
    <defs></defs>
    <g id="Symbols" stroke="none" stroke-width="1" fill="none" fill-rule="evenodd">
        <g id="Footer" transform="translate(-705.000000, -77.000000)">
            <g id="Group-16">
                <g transform="translate(203.000000, 47.000000)">
                    <g id="Group-8" transform="translate(502.000000, 0.000000)">
                        <g id="tripadvisor" transform="translate(0.000000, 30.000000)">
                            <g id="logo" transform="translate(0.122378, 1.489512)">
                                <g id="g3110">
                                    <path d="M14.329,11.202 C15.474,14.303 18.924,15.892 22.027,14.749 C25.128,13.6 26.719,10.152 25.57,7.049 C24.424,3.942 20.979,2.357 17.872,3.503 C14.767,4.651 13.182,8.097 14.329,11.202 L14.329,11.202 Z" id="path3114" fill="#0C0F27"></path>
                                    <ellipse id="circle3116" fill="#0C0F27" cx="6.6669998" cy="9.102" rx="5.9920001" ry="5.9920001"></ellipse>
                                    <path d="M7.688,9.039 C7.688,9.65 7.192,10.15 6.581,10.15 C5.968,10.15 5.473,9.65 5.473,9.039 C5.473,8.429 5.968,7.935 6.581,7.935 C7.192,7.934 7.688,8.429 7.688,9.039 L7.688,9.039 Z" id="path3118" fill="#FFFFFF"></path>
                                    <path d="M21.042,9.039 C21.042,9.65 20.548,10.15 19.937,10.15 C19.322,10.15 18.829,9.65 18.829,9.039 C18.829,8.429 19.322,7.935 19.937,7.935 C20.548,7.934 21.042,8.429 21.042,9.039 L21.042,9.039 Z" id="path3120" fill="#FFFFFF"></path>
                                    <g id="g3122" transform="translate(3.000000, 5.000000)" fill="#FFFFFF">
                                        <path d="M0.289,4.039 C0.289,5.856 1.767,7.331 3.583,7.331 C5.395,7.331 6.872,5.857 6.872,4.039 C6.872,2.227 5.394,0.751 3.583,0.751 C1.767,0.752 0.289,2.226 0.289,4.039 L0.289,4.039 Z M1.424,4.039 C1.424,2.851 2.395,1.884 3.585,1.884 C4.773,1.884 5.739,2.852 5.739,4.039 C5.739,5.231 4.773,6.199 3.585,6.199 C2.395,6.2 1.424,5.232 1.424,4.039 L1.424,4.039 Z" id="path3124"></path>
                                    </g>
                                    <g id="g3126" transform="translate(16.000000, 5.000000)" fill="#FFFFFF">
                                        <path d="M0.644,4.039 C0.644,5.856 2.12,7.331 3.936,7.331 C5.749,7.331 7.224,5.857 7.224,4.039 C7.224,2.227 5.749,0.751 3.936,0.751 C2.121,0.752 0.644,2.226 0.644,4.039 L0.644,4.039 Z M1.779,4.039 C1.779,2.851 2.747,1.884 3.938,1.884 C5.126,1.884 6.091,2.852 6.091,4.039 C6.091,5.231 5.126,6.199 3.938,6.199 C2.746,6.2 1.779,5.232 1.779,4.039 L1.779,4.039 Z" id="path3128"></path>
                                    </g>
                                    <path d="M25.307,5.165 C25.619,3.828 26.611,2.489 26.611,2.489 L22.162,2.486 C19.667,0.875 16.638,0.021 13.281,0.021 C9.797,0.021 6.651,0.896 4.17,2.518 L0,2.521 C0,2.521 0.98,3.845 1.297,5.173 C0.486,6.275 0.004,7.631 0.004,9.102 C0.004,12.775 2.994,15.766 6.669,15.766 C8.77,15.766 10.643,14.787 11.865,13.264 L13.284,15.389 L14.714,13.246 C15.357,14.064 16.187,14.728 17.16,15.178 C18.778,15.922 20.591,15.996 22.26,15.379 C25.708,14.104 27.478,10.261 26.203,6.816 C25.979,6.21 25.673,5.66 25.307,5.165 L25.307,5.165 Z M13.28,1.184 C15.675,1.184 17.837,1.617 19.747,2.473 C19.045,2.492 18.336,2.617 17.642,2.872 C15.972,3.488 14.64,4.718 13.897,6.337 C13.559,7.07 13.368,7.844 13.309,8.627 C13.065,5.218 10.256,2.512 6.801,2.442 C8.709,1.627 10.902,1.184 13.28,1.184 L13.28,1.184 Z M11.072,12.08 C10.115,13.49 8.497,14.421 6.667,14.421 C3.733,14.421 1.346,12.031 1.346,9.102 C1.346,6.167 3.734,3.782 6.667,3.782 C9.6,3.782 11.987,6.167 11.987,9.102 C11.987,9.281 11.952,9.45 11.934,9.623 C11.845,10.524 11.556,11.367 11.072,12.08 L11.072,12.08 Z M21.793,14.117 C20.46,14.609 19.014,14.553 17.723,13.957 C16.807,13.533 16.057,12.869 15.517,12.044 C15.297,11.709 15.103,11.354 14.961,10.968 C14.799,10.53 14.718,10.078 14.674,9.623 C14.585,8.7 14.719,7.765 15.117,6.901 C15.713,5.61 16.775,4.627 18.108,4.135 C20.861,3.12 23.925,4.531 24.942,7.284 C25.958,10.035 24.545,13.1 21.793,14.117 L21.793,14.117 Z" id="path3138" fill="#FFFFFF"></path>
                                </g>
                            </g>
                            <g transform="translate(30.122378, 0.489512)" fill="#FFFFFF">
                                <path d="M65.578,2.087 C65.578,2.797 66.156,3.373 66.865,3.373 C67.578,3.373 68.152,2.797 68.152,2.087 C68.152,1.378 67.576,0.799 66.865,0.799 C66.156,0.798 65.578,1.377 65.578,2.087 L65.578,2.087 Z" id="path3145"></path>
                                <path d="M2.52,2.67 L2.52,5.215 L0.358,5.215 L0.358,6.922 L2.461,6.922 L2.461,12.401 C2.461,15.007 3.348,16.072 5.528,16.072 C6.081,16.072 6.609,16.004 7.139,15.861 L7.225,15.838 L7.201,14.07 L7.052,14.125 C6.623,14.275 6.288,14.348 6.029,14.348 C5.005,14.348 4.625,13.77 4.625,12.216 L4.625,6.923 L7.12,6.923 L7.12,5.215 L4.625,5.215 L4.625,1.946 L4.471,1.996 L2.52,2.67 Z" id="path3149"></path>
                                <path d="M11.215,6.943 L11.215,5.214 L9.236,5.214 L9.236,15.885 L11.4,15.885 L11.4,10.528 C11.4,8.283 12.343,7.046 14.053,7.046 C14.301,7.046 14.541,7.083 14.834,7.166 L14.974,7.206 L15.045,5.099 L14.114,5.028 C12.86,5.027 11.847,5.706 11.215,6.943 L11.215,6.943 Z" id="path3151"></path>
                                <path d="M26.657,4.964 C25.172,4.964 23.924,5.667 23.091,6.946 L23.091,5.213 L21.113,5.213 L21.113,20.23 L23.278,20.23 L23.278,14.408 C24.059,15.469 25.179,16.053 26.573,16.053 C29.308,16.053 31.075,13.809 31.075,10.345 C31.076,7.125 29.299,4.964 26.657,4.964 L26.657,4.964 Z M26.053,14.305 C24.341,14.305 23.278,12.841 23.278,10.488 C23.278,8.22 24.4,6.753 26.136,6.753 C27.809,6.753 28.809,8.142 28.809,10.466 C28.809,12.833 27.752,14.305 26.053,14.305 L26.053,14.305 Z" id="path3155"></path>
                                <path d="M37.4,4.964 C36.077,4.964 34.918,5.214 33.855,5.724 L33.789,5.757 L33.812,7.603 L33.982,7.508 C34.998,6.939 35.96,6.649 36.836,6.649 C38.403,6.649 39.303,7.548 39.303,9.117 L39.303,9.208 L38.065,9.208 C34.503,9.208 32.543,10.498 32.543,12.838 C32.543,14.719 33.958,16.031 35.983,16.031 C37.473,16.031 38.626,15.445 39.448,14.343 L39.448,15.882 L41.403,15.882 L41.403,9.426 C41.402,6.467 40.056,4.964 37.4,4.964 L37.4,4.964 Z M39.3,11.38 C39.3,13.219 38.194,14.406 36.483,14.406 C35.435,14.406 34.704,13.718 34.704,12.733 C34.704,11.438 35.942,10.727 38.189,10.727 L39.302,10.727 C39.3,10.892 39.3,11.38 39.3,11.38 L39.3,11.38 Z" id="path3161"></path>
                                <path d="M50.592,0.119 L50.592,6.662 C49.794,5.553 48.684,4.965 47.258,4.965 C44.611,4.965 42.832,7.144 42.832,10.384 C42.832,13.723 44.636,16.053 47.214,16.053 C48.741,16.053 49.932,15.376 50.758,14.061 L50.758,15.885 L52.758,15.885 L52.758,0.119 L50.592,0.119 L50.592,0.119 Z M47.775,14.262 C46.126,14.262 45.102,12.823 45.102,10.508 C45.102,8.19 46.135,6.692 47.736,6.692 C49.523,6.692 50.59,8.117 50.59,10.508 C50.592,12.791 49.49,14.262 47.775,14.262 L47.775,14.262 Z" id="path3165"></path>
                                <polygon id="path3167" points="62.426 5.214 59.358 11.375 56.522 5.214 54.084 5.214 59.313 15.885 64.684 5.214"></polygon>
                                <polygon id="path3169" points="67.834 5.214 65.785 5.214 65.785 15.885 67.951 15.885 67.951 5.214 67.834 5.214"></polygon>
                                <path d="M70.488,7.95 C70.488,9.451 71.519,10.241 73.424,11.173 C74.625,11.763 75.252,12.11 75.252,12.941 C75.252,13.793 74.481,14.346 73.285,14.346 C72.439,14.346 71.5,14.108 70.57,13.651 L70.412,13.573 L70.342,15.456 L70.414,15.481 C71.303,15.835 72.238,16.009 73.203,16.009 C75.849,16.009 77.557,14.748 77.557,12.795 C77.557,11.168 76.475,10.343 74.6,9.468 C73.227,8.822 72.651,8.446 72.651,7.763 C72.651,7.114 73.292,6.692 74.282,6.692 C75.178,6.692 76.05,6.891 76.876,7.285 L77.032,7.357 L77.126,5.516 L77.04,5.491 C76.144,5.225 75.26,5.091 74.407,5.091 C72.064,5.089 70.488,6.239 70.488,7.95 L70.488,7.95 Z" id="path3171"></path>
                                <path d="M84.31,4.964 C81.058,4.964 79.039,7.104 79.039,10.549 C79.039,13.994 81.06,16.132 84.31,16.132 C87.577,16.132 89.605,13.992 89.605,10.549 C89.604,7.105 87.574,4.964 84.31,4.964 L84.31,4.964 Z M84.328,14.365 C82.53,14.365 81.324,12.823 81.324,10.528 C81.324,8.221 82.53,6.672 84.328,6.672 C86.153,6.672 87.334,8.186 87.334,10.528 C87.334,12.859 86.155,14.365 84.328,14.365 L84.328,14.365 Z" id="path3175"></path>
                                <path d="M93.597,6.943 L93.597,5.214 L91.618,5.214 L91.618,15.885 L93.781,15.885 L93.781,10.528 C93.781,8.283 94.72,7.046 96.431,7.046 C96.679,7.046 96.918,7.083 97.205,7.166 L97.351,7.206 L97.418,5.099 L96.49,5.028 C95.24,5.027 94.229,5.706 93.597,6.943 L93.597,6.943 Z" id="path3177"></path>
                                <polygon id="path3179" points="18.901 5.214 16.853 5.214 16.853 15.885 19.017 15.885 19.017 5.214"></polygon>
                                <path d="M16.643,2.087 C16.643,2.797 17.222,3.373 17.93,3.373 C18.64,3.373 19.217,2.797 19.217,2.087 C19.217,1.378 18.64,0.799 17.93,0.799 C17.222,0.798 16.643,1.377 16.643,2.087 L16.643,2.087 Z" id="path3181"></path>
                                <path d="M102.578,4.742 C102.932,5.101 103.119,5.579 103.119,6.093 C103.119,6.63 102.918,7.11 102.549,7.465 C102.164,7.831 101.687,8.026 101.189,8.026 C100.668,8.026 100.189,7.821 99.816,7.436 C99.458,7.067 99.258,6.596 99.258,6.092 C99.258,5.578 99.463,5.08 99.847,4.702 C100.205,4.35 100.668,4.158 101.189,4.158 C101.722,4.158 102.207,4.359 102.578,4.742 L102.578,4.742 Z M100.086,4.954 C99.774,5.266 99.607,5.668 99.607,6.093 C99.607,6.507 99.761,6.887 100.06,7.19 C100.359,7.502 100.756,7.672 101.181,7.672 C101.595,7.672 101.993,7.513 102.299,7.215 C102.601,6.925 102.767,6.527 102.767,6.092 C102.767,5.667 102.613,5.281 102.32,4.984 C102.013,4.673 101.624,4.508 101.189,4.508 C100.76,4.508 100.385,4.661 100.086,4.954 L100.086,4.954 Z M101.224,4.99 C101.828,4.99 102.14,5.209 102.14,5.606 C102.14,5.88 101.978,6.092 101.689,6.179 L102.165,7.109 L101.521,7.109 L101.124,6.269 L100.956,6.269 L100.956,7.109 L100.372,7.109 L100.372,4.989 L101.224,4.99 L101.224,4.99 L101.224,4.99 Z M100.951,5.924 L101.153,5.924 C101.414,5.924 101.539,5.833 101.539,5.65 C101.539,5.442 101.408,5.357 101.123,5.357 L100.951,5.357 L100.951,5.924 L100.951,5.924 L100.951,5.924 Z" id="path3183"></path>
                            </g>
                            <g id="途" transform="translate(153.122378, 3.489512)" fill="#FFFFFF">
                                <path d="M10.82,7.857 C10.639,7.711 10.469,7.694 10.321,7.806 C10.229,7.878 10.177,7.959 10.169,8.044 C10.16,8.13 10.192,8.219 10.268,8.312 C10.44,8.487 10.73,8.81 11.131,9.278 C11.504,9.718 11.774,10.04 11.943,10.242 C12.007,10.329 12.092,10.372 12.195,10.372 C12.267,10.372 12.351,10.349 12.444,10.304 L12.452,10.297 C12.635,10.115 12.652,9.93 12.506,9.744 C11.813,8.916 11.264,8.3 10.82,7.857 L10.82,7.857 Z" id="path3187"></path>
                                <path d="M12.834,11.816 C9.684,11.816 7.434,11.797 6.327,11.763 C4.957,11.73 3.89,11.259 3.155,10.362 L3.155,5.54 C3.12,5.252 2.956,5.09 2.664,5.054 L1.14,5.054 C0.986,5.054 0.794,5.121 0.75,5.439 L0.749,5.445 L0.75,5.45 C0.786,5.637 0.914,5.747 1.14,5.782 L2.208,5.782 C2.323,5.782 2.377,5.837 2.377,5.952 L2.377,10.264 C2.274,10.398 2.072,10.616 1.775,10.913 C1.299,11.462 1.016,11.79 0.856,11.986 C0.746,12.168 0.764,12.351 0.909,12.533 L0.921,12.542 C1.012,12.588 1.099,12.61 1.178,12.61 C1.286,12.61 1.385,12.569 1.471,12.48 C1.739,12.111 2.12,11.632 2.637,11.01 C2.722,10.955 2.791,10.957 2.842,11.005 C3.557,11.959 4.695,12.46 6.225,12.494 L8.614,12.494 C10.608,12.529 11.885,12.545 12.632,12.545 C12.882,12.545 13.064,12.435 13.171,12.222 L13.174,12.211 C13.19,12.107 13.174,12.022 13.127,11.956 C13.071,11.883 12.974,11.836 12.834,11.816 L12.834,11.816 Z" id="path3189"></path>
                                <path d="M12.325,6.427 L8.901,6.427 L8.901,4.815 L10.755,4.815 C10.938,4.779 11.051,4.667 11.087,4.483 L11.088,4.477 L11.087,4.471 C11.051,4.287 10.938,4.175 10.748,4.137 L6.269,4.138 C6.083,4.175 5.972,4.287 5.936,4.471 L5.936,4.477 L5.936,4.483 C5.972,4.667 6.083,4.779 6.275,4.815 L8.122,4.815 L8.122,6.426 L4.546,6.426 C4.266,6.426 4.207,6.581 4.207,6.719 C4.243,6.937 4.354,7.067 4.546,7.103 L8.122,7.103 L8.122,9.665 C8.137,9.859 8.097,10.01 8.002,10.112 C7.892,10.23 7.704,10.29 7.444,10.29 L6.472,10.29 C6.353,10.311 6.269,10.354 6.223,10.421 C6.184,10.479 6.172,10.55 6.192,10.64 C6.263,10.856 6.409,10.982 6.63,11.018 L7.495,11.018 L7.495,11.018 C8.023,11 8.407,10.865 8.637,10.615 C8.827,10.409 8.916,10.124 8.901,9.765 L8.901,7.103 L12.332,7.103 C12.516,7.067 12.627,6.937 12.664,6.713 C12.664,6.582 12.605,6.427 12.325,6.427 L12.325,6.427 Z" id="path3191"></path>
                                <path d="M4.22,4.707 C4.362,4.819 4.494,4.876 4.616,4.876 C4.647,4.876 4.678,4.872 4.708,4.865 L4.717,4.861 C6.275,3.946 7.527,2.883 8.438,1.702 C8.559,1.55 8.673,1.554 8.791,1.698 C9.605,2.953 10.843,3.968 12.466,4.711 C12.681,4.818 12.884,4.781 13.064,4.603 L13.071,4.592 C13.207,4.277 13.084,4.118 12.952,4.04 C11.337,3.333 10.094,2.344 9.254,1.102 C9.008,0.749 8.782,0.58 8.566,0.58 C8.381,0.58 8.19,0.733 7.979,1.051 C7.072,2.296 5.827,3.353 4.28,4.193 C4.127,4.272 4.103,4.44 4.213,4.695 L4.22,4.707 L4.22,4.707 Z" id="path3193"></path>
                                <path d="M3.146,3.225 L3.151,3.232 C3.27,3.332 3.385,3.381 3.497,3.381 C3.585,3.381 3.672,3.349 3.756,3.28 C3.938,3.098 3.956,2.912 3.811,2.727 C3.508,2.323 3.04,1.773 2.38,1.043 C2.198,0.899 2.018,0.879 1.83,0.992 C1.738,1.064 1.686,1.145 1.678,1.23 C1.668,1.316 1.7,1.405 1.776,1.498 C2.281,2.072 2.742,2.654 3.146,3.225 L3.146,3.225 Z" id="path3195"></path>
                                <path d="M4.217,10.299 L4.226,10.304 C4.332,10.357 4.431,10.383 4.521,10.383 C4.613,10.383 4.696,10.356 4.773,10.297 C5.52,9.551 6.12,8.882 6.558,8.308 C6.637,8.189 6.666,8.082 6.647,7.992 C6.63,7.918 6.58,7.855 6.495,7.803 C6.279,7.697 6.094,7.714 5.945,7.864 C5.401,8.542 4.821,9.175 4.218,9.743 L4.212,9.749 C4.104,9.929 4.104,10.113 4.212,10.293 L4.217,10.299 L4.217,10.299 Z" id="path3197"></path>
                            </g>
                            <g id="貓" transform="translate(138.122378, 3.489512)" fill="#FFFFFF">
                                <path d="M12.005,5.026 L5.798,5.026 C5.511,5.062 5.346,5.227 5.312,5.516 L5.312,11.673 C5.346,11.96 5.511,12.123 5.802,12.16 L12.007,12.16 L12.01,12.16 C12.263,12.123 12.41,11.96 12.446,11.668 L12.446,5.514 C12.41,5.228 12.263,5.062 12.005,5.026 L12.005,5.026 Z M6.09,8.178 L6.09,5.925 C6.09,5.727 6.188,5.703 6.26,5.703 L8.463,5.703 L8.463,8.178 L6.09,8.178 L6.09,8.178 Z M6.09,11.313 L6.09,8.855 L8.463,8.855 L8.463,11.484 L6.26,11.484 C6.143,11.484 6.09,11.432 6.09,11.313 L6.09,11.313 Z M9.192,8.178 L9.192,5.703 L11.548,5.703 C11.619,5.703 11.718,5.726 11.718,5.925 L11.718,8.178 L9.192,8.178 L9.192,8.178 Z M9.192,11.484 L9.192,8.855 L11.718,8.855 L11.718,11.313 C11.718,11.429 11.663,11.484 11.548,11.484 L9.192,11.484 L9.192,11.484 Z" id="path3201"></path>
                                <path d="M12.921,2.128 L10.818,2.128 L10.818,0.731 C10.781,0.547 10.652,0.436 10.434,0.4 L10.428,0.398 L10.422,0.4 C10.239,0.437 10.128,0.548 10.091,0.738 L10.091,2.128 L7.616,2.128 L7.616,0.789 C7.616,0.534 7.48,0.399 7.224,0.399 C7.073,0.399 6.88,0.465 6.835,0.789 L6.835,2.128 L4.981,2.129 C4.795,2.165 4.684,2.294 4.649,2.518 C4.649,2.65 4.708,2.806 4.987,2.806 L6.835,2.806 L6.835,4.1 C6.872,4.318 7.001,4.448 7.22,4.482 L7.224,4.483 L7.231,4.482 C7.548,4.44 7.616,4.247 7.616,4.094 L7.616,2.806 L10.091,2.806 L10.091,4.15 C10.128,4.336 10.239,4.446 10.423,4.481 L10.429,4.482 L10.434,4.481 C10.653,4.447 10.782,4.336 10.819,4.144 L10.819,2.806 L12.922,2.806 C13.11,2.806 13.21,2.706 13.21,2.518 C13.209,2.195 13.052,2.128 12.921,2.128 L12.921,2.128 Z" id="path3203"></path>
                                <path d="M4.438,2.945 C4.279,2.786 4.091,3.03 4.091,3.03 C4.043,3.107 3.986,3.182 3.914,3.259 C3.88,3.298 3.846,3.336 3.81,3.373 C3.703,3.047 3.595,2.754 3.491,2.501 C3.38,2.238 3.279,2.017 3.183,1.825 C3.944,1.222 4.049,0.995 4.049,0.839 L4.049,0.798 L4.031,0.765 C4.016,0.737 4.004,0.706 3.991,0.675 C3.964,0.605 3.922,0.552 3.865,0.515 C3.805,0.478 3.731,0.474 3.641,0.506 C3.559,0.534 3.468,0.61 3.362,0.736 C3.221,0.889 3.073,1.035 2.921,1.172 C2.774,1.307 2.605,1.442 2.421,1.57 C2.238,1.698 2.034,1.83 1.814,1.958 C1.58,2.094 1.329,2.229 1.068,2.361 C0.955,2.423 0.875,2.492 0.822,2.569 C0.766,2.652 0.736,2.728 0.726,2.806 C0.713,2.9 0.733,2.986 0.782,3.055 C0.832,3.125 0.897,3.16 0.982,3.16 C1.088,3.16 1.225,3.107 1.426,2.992 C1.617,3.444 1.774,3.82 1.902,4.14 C2.029,4.465 2.116,4.696 2.181,4.876 C1.839,5.137 1.534,5.356 1.274,5.527 C0.886,5.782 0.803,5.864 0.776,5.907 C0.722,5.977 0.693,6.06 0.693,6.146 C0.693,6.396 0.803,6.545 0.988,6.545 C1.125,6.545 1.463,6.395 2.869,5.224 C2.937,5.35 3.003,5.473 3.066,5.594 L3.08,5.618 C3.132,5.72 3.182,5.816 3.23,5.91 L3.278,6.003 C2.741,6.791 2.049,7.503 1.218,8.122 C1.05,8.257 0.972,8.384 0.972,8.519 C0.972,8.629 0.993,8.723 1.037,8.807 C1.092,8.891 1.168,8.935 1.259,8.935 C1.323,8.935 1.394,8.912 1.461,8.869 C1.493,8.849 1.558,8.798 1.643,8.723 C1.731,8.648 1.846,8.546 1.99,8.415 C2.297,8.149 2.585,7.864 2.846,7.568 C3.078,7.312 3.313,7.018 3.545,6.699 C3.638,6.997 3.717,7.342 3.781,7.723 C3.093,8.899 2.226,9.86 1.202,10.576 C1.083,10.662 1.008,10.752 0.975,10.85 C0.94,10.952 0.933,11.046 0.954,11.129 C0.975,11.209 1.012,11.275 1.062,11.324 C1.118,11.38 1.172,11.408 1.224,11.408 C1.338,11.408 1.57,11.302 2.414,10.516 C2.973,9.985 3.475,9.369 3.903,8.681 C3.928,8.981 3.941,9.284 3.941,9.588 C3.941,9.994 3.888,10.396 3.783,10.78 C3.673,11.173 3.562,11.46 3.464,11.609 C3.41,11.683 3.355,11.743 3.296,11.783 C3.249,11.815 3.188,11.833 3.113,11.833 L3.09,11.833 C2.994,11.828 2.875,11.799 2.736,11.746 C2.594,11.691 2.42,11.609 2.218,11.504 C2.1,11.418 1.977,11.415 1.87,11.499 C1.766,11.582 1.711,11.71 1.711,11.87 C1.711,11.923 1.72,11.973 1.735,12.02 C1.755,12.079 1.793,12.129 1.857,12.176 C1.907,12.214 1.975,12.252 2.061,12.293 C2.144,12.331 2.256,12.376 2.405,12.431 C2.683,12.548 2.931,12.608 3.141,12.608 C3.629,12.608 3.987,12.254 4.203,11.555 C4.413,10.903 4.52,10.152 4.52,9.32 C4.52,8.501 4.407,7.655 4.184,6.806 C3.975,5.998 3.69,5.326 3.333,4.805 C3.642,4.525 3.905,4.26 4.117,4.021 C4.356,3.749 4.542,3.576 4.58,3.44 C4.664,3.164 4.563,3.07 4.438,2.945 L4.438,2.945 Z M3.353,3.854 C3.131,4.065 2.904,4.271 2.676,4.464 C2.53,4.056 2.402,3.713 2.283,3.418 C2.173,3.144 2.064,2.898 1.96,2.684 C2.076,2.609 2.192,2.534 2.309,2.457 C2.42,2.383 2.551,2.295 2.687,2.199 C2.934,2.688 3.158,3.243 3.353,3.854 L3.353,3.854 Z" id="path3205"></path>
                            </g>
                            <g id="應" transform="translate(168.122378, 3.489512)" fill="#FFFFFF">
                                <path d="M3.449,5.415 C3.696,5.168 3.932,4.903 4.154,4.623 L4.155,6.924 C4.19,7.108 4.302,7.218 4.487,7.255 L4.493,7.257 L4.5,7.255 C4.683,7.218 4.794,7.108 4.832,6.917 L4.832,3.724 C5.101,3.354 5.34,2.979 5.541,2.608 C5.615,2.422 5.557,2.283 5.37,2.208 C5.183,2.135 5.032,2.191 4.921,2.376 C4.417,3.353 3.752,4.222 2.941,4.966 C2.831,5.113 2.831,5.266 2.941,5.413 L2.951,5.421 C3.131,5.528 3.295,5.531 3.449,5.415 L3.449,5.415 Z" id="path3209"></path>
                                <path d="M12.68,1.594 L8.035,1.594 C8.029,1.53 8.014,1.44 7.984,1.317 C7.915,0.946 7.864,0.706 7.828,0.597 C7.721,0.382 7.567,0.289 7.385,0.325 C7.164,0.362 7.067,0.498 7.105,0.723 C7.169,0.948 7.234,1.234 7.301,1.594 L2.51,1.594 C2.189,1.594 2.02,1.746 2.02,2.035 L2.02,5.747 C2.02,7.561 1.951,8.912 1.816,9.759 C1.683,10.598 1.376,11.398 0.905,12.137 C0.797,12.319 0.814,12.502 0.959,12.684 L0.972,12.694 C1.052,12.733 1.129,12.755 1.201,12.755 C1.322,12.755 1.43,12.696 1.523,12.578 C1.997,11.734 2.323,10.841 2.494,9.923 C2.663,9.009 2.749,7.639 2.749,5.85 L2.748,2.348 C2.777,2.198 2.835,2.121 2.919,2.121 L12.682,2.121 C12.87,2.121 12.97,2.021 12.97,1.833 C12.968,1.723 12.918,1.594 12.68,1.594 L12.68,1.594 Z" id="path3211"></path>
                                <path d="M12.628,6.375 L10.12,6.375 L10.12,5.78 L12.331,5.779 C12.52,5.733 12.56,5.626 12.56,5.545 C12.56,5.391 12.476,5.308 12.323,5.308 L10.12,5.308 L10.12,4.713 L12.331,4.711 C12.52,4.665 12.56,4.559 12.56,4.477 C12.56,4.323 12.476,4.24 12.323,4.24 L10.12,4.24 L10.12,3.645 L12.577,3.645 C12.686,3.645 12.814,3.596 12.814,3.357 C12.814,3.205 12.73,3.121 12.577,3.121 L10.22,3.121 C10.211,3.049 10.178,2.939 10.119,2.794 C10.075,2.528 10.038,2.455 10.014,2.425 C9.94,2.245 9.79,2.171 9.573,2.207 L9.561,2.211 C9.378,2.319 9.305,2.469 9.341,2.653 L9.344,2.66 C9.407,2.786 9.469,2.941 9.531,3.121 L7.258,3.121 C7.288,3.075 7.325,3.006 7.374,2.911 C7.412,2.794 7.445,2.743 7.468,2.721 L7.475,2.714 L7.476,2.704 C7.512,2.517 7.455,2.387 7.309,2.312 C7.121,2.199 6.962,2.276 6.854,2.53 C6.483,3.305 5.904,4.123 5.128,4.966 C5.017,5.113 5.017,5.266 5.128,5.413 L5.136,5.42 C5.282,5.532 5.439,5.511 5.587,5.365 C5.833,5.117 6.069,4.853 6.292,4.575 L6.292,6.969 C6.292,7.1 6.35,7.257 6.63,7.257 C6.91,7.257 6.97,7.1 6.97,6.969 L6.97,6.849 L12.638,6.848 C12.827,6.802 12.867,6.696 12.867,6.613 C12.865,6.458 12.781,6.375 12.628,6.375 L12.628,6.375 Z M9.443,5.78 L9.443,6.375 L6.968,6.375 L6.968,5.78 L9.443,5.78 L9.443,5.78 Z M9.443,4.713 L9.443,5.308 L6.968,5.308 L6.968,4.713 L9.443,4.713 L9.443,4.713 Z M9.443,3.645 L9.443,4.24 L6.968,4.24 L6.968,3.645 L9.443,3.645 L9.443,3.645 Z" id="path3213"></path>
                                <path d="M5.915,11.551 C5.836,11.375 5.768,11.28 5.694,11.242 C5.623,11.208 5.539,11.201 5.441,11.221 L5.414,11.232 C5.3,11.297 5.275,11.387 5.275,11.451 C5.275,11.522 5.296,11.595 5.338,11.666 C5.498,11.956 5.632,12.253 5.736,12.551 C5.819,12.768 5.94,12.814 6.028,12.814 C6.085,12.814 6.142,12.792 6.204,12.743 C6.286,12.676 6.304,12.602 6.304,12.552 C6.304,12.513 6.292,12.443 6.149,12.12 L5.915,11.551 L5.915,11.551 Z" id="path3215"></path>
                                <path d="M7.277,7.108 C7.256,7.138 7.237,7.176 7.222,7.224 C7.157,7.46 7.118,7.574 7.097,7.628 L4.948,7.628 C4.665,7.628 4.469,7.682 4.345,7.789 C4.218,7.9 4.157,8.087 4.157,8.358 L4.157,10.128 C4.157,10.507 4.238,10.765 4.405,10.916 C4.567,11.065 4.812,11.141 5.134,11.141 L7.268,11.141 C7.181,11.16 7.128,11.209 7.1,11.252 C7.011,11.388 7.148,11.562 7.196,11.62 C7.332,11.781 7.451,11.936 7.55,12.085 C7.649,12.231 7.731,12.374 7.794,12.508 C7.861,12.653 7.945,12.727 8.046,12.727 C8.127,12.727 8.198,12.703 8.251,12.66 C8.35,12.596 8.37,12.515 8.37,12.46 C8.37,12.409 8.349,12.329 8.209,12.106 C8.157,12.02 8.101,11.934 8.038,11.846 C7.976,11.76 7.914,11.669 7.847,11.568 L7.681,11.34 C7.611,11.244 7.574,11.213 7.558,11.203 C7.518,11.172 7.472,11.15 7.422,11.141 L9.303,11.141 C9.257,11.188 9.237,11.25 9.241,11.322 C9.248,11.411 9.3,11.485 9.387,11.538 C9.747,11.811 10.039,12.083 10.255,12.346 C10.266,12.359 10.279,12.373 10.295,12.385 C10.121,12.36 9.928,12.324 9.716,12.28 C9.624,12.26 9.533,12.264 9.448,12.296 C9.374,12.324 9.284,12.4 9.284,12.589 C9.284,12.689 9.358,12.762 9.505,12.804 C9.609,12.835 9.81,12.869 10.125,12.912 C10.282,12.928 10.436,12.942 10.583,12.955 C10.737,12.968 10.893,12.975 11.046,12.975 C11.518,12.975 11.873,12.884 12.105,12.706 C12.337,12.528 12.499,12.24 12.586,11.846 C12.619,11.662 12.643,11.506 12.66,11.373 C12.68,11.221 12.661,11.091 12.606,10.986 C12.549,10.879 12.454,10.797 12.321,10.743 C12.197,10.692 12.029,10.666 11.808,10.666 L5.316,10.666 C5.127,10.666 4.981,10.643 4.879,10.597 C4.811,10.565 4.781,10.468 4.772,10.368 L12.341,10.368 C12.44,10.368 12.507,10.352 12.554,10.318 C12.6,10.285 12.631,10.246 12.648,10.199 C12.665,10.148 12.661,10.095 12.636,10.049 C12.618,10.014 12.603,9.989 12.586,9.972 C12.54,9.926 12.464,9.905 12.341,9.905 L4.767,9.905 L4.767,9.618 L11.009,9.618 C11.389,9.618 11.598,9.573 11.689,9.472 C11.764,9.386 11.799,9.231 11.799,8.988 L11.799,8.26 C11.799,8.041 11.74,7.879 11.622,7.778 C11.507,7.676 11.291,7.63 10.947,7.63 L7.698,7.63 C7.733,7.555 7.76,7.494 7.781,7.45 C7.82,7.366 7.84,7.298 7.84,7.241 C7.84,7.208 7.833,7.156 7.801,7.109 C7.561,6.808 7.277,7.108 7.277,7.108 L7.277,7.108 Z M4.768,8.392 L4.768,8.334 C4.768,8.243 4.786,8.179 4.814,8.15 C4.838,8.129 4.891,8.104 5.01,8.104 L11.046,8.104 C11.159,8.104 11.185,8.119 11.186,8.119 C11.188,8.122 11.203,8.148 11.203,8.235 L11.203,8.391 L4.768,8.391 L4.768,8.392 Z M11.046,9.153 L4.768,9.153 L4.768,8.853 L11.203,8.853 L11.203,9.023 C11.203,9.074 11.193,9.112 11.178,9.127 C11.175,9.131 11.148,9.153 11.046,9.153 L11.046,9.153 Z M10.756,12.231 C10.756,12.165 10.718,12.088 10.635,11.983 C10.563,11.894 10.433,11.763 10.244,11.592 L9.84,11.2 C9.819,11.179 9.796,11.158 9.774,11.141 L11.723,11.141 C11.918,11.141 11.972,11.185 11.984,11.198 C12.009,11.227 12.039,11.291 12.039,11.432 C12.039,11.81 11.961,12.075 11.808,12.217 C11.652,12.362 11.343,12.436 10.888,12.436 C10.807,12.436 10.719,12.433 10.623,12.423 C10.744,12.377 10.756,12.269 10.756,12.231 L10.756,12.231 Z" id="path3217"></path>
                                <path d="M4.376,11.134 C4.316,11.102 4.26,11.084 4.21,11.084 C4.086,11.084 3.99,11.201 3.926,11.294 C3.672,11.732 3.388,12.068 3.085,12.294 C2.993,12.354 2.935,12.415 2.906,12.479 C2.874,12.55 2.868,12.615 2.892,12.671 C2.914,12.721 2.954,12.763 3.01,12.794 C3.057,12.82 3.1,12.837 3.14,12.847 L3.164,12.851 C3.225,12.851 3.308,12.824 3.652,12.503 C3.877,12.295 4.074,12.061 4.232,11.81 C4.463,11.474 4.496,11.372 4.496,11.309 C4.497,11.26 4.477,11.188 4.376,11.134 L4.376,11.134 Z" id="path3219"></path>
                            </g>
                        </g>
                    </g>
                </g>
            </g>
        </g>
    </g>
</svg>