<?xml version="1.0" encoding="UTF-8" standalone="no"?>
<svg width="24px" height="24px" viewBox="0 0 24 24" version="1.1" xmlns="http://www.w3.org/2000/svg" xmlns:xlink="http://www.w3.org/1999/xlink">
    <defs></defs>
    <g id="首頁設計" stroke="none" stroke-width="1" fill="none" fill-rule="evenodd">
        <g id="台灣智慧觀光-首頁-ver0.3.4.2" transform="translate(-124.000000, -5211.000000)" fill="#B2B2B2">
            <g id="頁尾" transform="translate(0.000000, 5037.000000)">
                <g id="Group" transform="translate(90.000000, 76.000000)">
                    <g id="Dribbble-Icon-+-Twitter-Icon-+-Facebook-Icon" transform="translate(0.000000, 98.000000)">
                        <path d="M50.48,9.9 L50.49,10.17 C50.49,12.96 48.36,16.18 44.48,16.18 C43.29,16.18 42.18,15.83 41.24,15.23 C41.41,15.25 41.58,15.26 41.75,15.26 C42.74,15.26 43.65,14.93 44.37,14.36 C43.44,14.34 42.67,13.73 42.4,12.89 C42.53,12.92 42.66,12.93 42.79,12.93 C42.99,12.93 43.17,12.9 43.35,12.86 C42.38,12.66 41.66,11.81 41.66,10.79 L41.66,10.76 C41.94,10.92 42.27,11.01 42.61,11.02 C42.05,10.64 41.67,10 41.67,9.27 C41.67,8.88 41.78,8.52 41.96,8.2 C43,9.48 44.56,10.32 46.31,10.41 C46.28,10.26 46.26,10.09 46.26,9.93 C46.26,8.76 47.2,7.82 48.37,7.82 C48.98,7.82 49.52,8.07 49.91,8.48 C50.39,8.39 50.84,8.21 51.25,7.97 C51.09,8.47 50.76,8.88 50.32,9.14 C50.75,9.09 51.16,8.98 51.53,8.81 C51.25,9.23 50.89,9.6 50.48,9.9 L50.48,9.9 Z M46,0 C39.37,0 34,5.37 34,12 C34,18.63 39.37,24 46,24 C52.63,24 58,18.63 58,12 C58,5.37 52.63,0 46,0 L46,0 Z" id="Twitter-Icon"></path>
                    </g>
                </g>
            </g>
        </g>
    </g>
</svg>