<?xml version="1.0" encoding="UTF-8"?>
<svg width="32px" height="27px" viewBox="0 0 32 27" version="1.1" xmlns="http://www.w3.org/2000/svg" xmlns:xlink="http://www.w3.org/1999/xlink">
    <!-- Generator: Sketch 41.2 (35397) - http://www.bohemiancoding.com/sketch -->
    <title>Group 7</title>
    <desc>Created with Sketch.</desc>
    <defs></defs>
    <g id="Page-1" stroke="none" stroke-width="1" fill="none" fill-rule="evenodd">
        <g id="首頁---導航列各種狀態(目的地下拉選單顯示當頁及滑鼠懸停)" transform="translate(-1379.000000, -21.000000)">
            <g id="Header">
                <g id="通知" transform="translate(1355.000000, 11.000000)">
                    <g id="Group-7" transform="translate(24.000000, 10.000000)">
                        <g id="Group-6" transform="translate(0.000000, 7.000000)" fill="#4A4A4A">
                            <path d="M8,20 C9.105,20 10,19.0820513 10,17.9487179 L6,17.9487179 C6,19.0820513 6.895,20 8,20 Z M14,13.8461538 L14,8.71794872 C14,5.56410256 12.365,2.93333333 9.5,2.23589744 L9.5,1.53846154 C9.5,0.687179487 8.83,0 8,0 C7.17,0 6.5,0.687179487 6.5,1.53846154 L6.5,2.23589744 C3.635,2.93333333 2,5.56410256 2,8.71794872 L2,13.8461538 L0,15.8974359 L0,16.9230769 L16,16.9230769 L16,15.8974359 L14,13.8461538 Z" id="Shape"></path>
                        </g>
                        <g id="Group-23" transform="translate(8.000000, 0.000000)" fill="#E9411E">
                            <rect id="Rectangle-7" x="0" y="0.25" width="24" height="17" rx="8.5"></rect>
                        </g>
                    </g>
                </g>
            </g>
        </g>
    </g>
</svg>